<?xml version="1.0" standalone="no"?>
<!DOCTYPE svg PUBLIC "-//W3C//DTD SVG 1.1//EN" "http://www.w3.org/Graphics/SVG/1.1/DTD/svg11.dtd" >
<svg xmlns="http://www.w3.org/2000/svg">
<defs>
  <font id="fico" horiz-adv-x="512">
    <font-face font-family="fico"
      units-per-em="1001" ascent="1001"
      descent="0"
      font-weight="normal"
      font-style="normal" />
    <missing-glyph horiz-adv-x="0" />
    <glyph glyph-name="adv-ico-1"
      unicode="&#xE001;"
      horiz-adv-x="1325.6486486486485" d="M1293.6707567567566 739.4414054054055L1260.9353513513513 706.706A22.887729729729724 22.887729729729724 0 0 0 1228.2269999999999 706.706L1225.0887297297295 709.8442702702703L1202.0386756756754 686.7942162162162A408.32683783783784 408.32683783783784 0 0 0 1289.7479189189187 433.9470270270271C1289.7479189189187 208.2891621621622 1105.9697297297296 24.510972972973 880.3118648648647 24.510972972973C654.6810540540539 24.510972972973 470.9028648648647 208.2891621621622 470.9028648648647 433.9470270270271C470.9028648648647 529.2314054054054 503.6382702702701 617.1570810810811 558.6121081081079 686.7942162162162L535.5620540540539 709.8442702702703L532.4237837837836 706.706A22.91478378378378 22.91478378378378 0 0 0 499.6883783783782 706.706L466.9800270270269 739.4414054054055A22.887729729729724 22.887729729729724 0 0 0 466.9800270270269 772.1497567567568L541.0540270270269 846.2508108108109A22.96889189189189 22.96889189189189 0 0 0 573.7894324324322 846.2508108108109L606.4977837837837 813.5154054054054A22.887729729729724 22.887729729729724 0 0 0 606.4977837837837 780.8070540540541L603.3595135135133 777.6417297297297L626.4095675675675 754.6187297297297A408.84086486486484 408.84086486486484 0 0 0 832.1556486486485 840.2177567567568V882.0974324324325H806.7518918918918A23.05005405405405 23.05005405405405 0 0 0 783.7288918918917 905.1474864864866V973.1884324324324C783.7288918918917 985.7685675675676 793.9282702702701 996.2384864864866 806.7518918918918 996.2384864864866H953.8718378378376C966.4519729729728 996.2384864864866 976.9218918918916 986.039108108108 976.9218918918916 973.1884324324324V905.1474864864866A23.077108108108103 23.077108108108103 0 0 0 953.8718378378376 882.0974324324325H928.4951351351348V840.2177567567568A405.3508918918919 405.3508918918919 0 0 0 1134.2412162162161 754.6187297297297L1157.29127027027 777.6417297297297L1154.125945945946 780.8070540540541A22.91478378378378 22.91478378378378 0 0 0 1154.125945945946 813.5154054054054L1186.8613513513512 846.2508108108109A22.96889189189189 22.96889189189189 0 0 0 1219.5967567567566 846.2508108108109L1293.6707567567566 772.1497567567568A22.887729729729724 22.887729729729724 0 0 0 1293.6707567567566 739.4414054054055zM880.3118648648649 748.0716486486488C707.0306486486486 748.0716486486488 565.9437567567568 606.9577027027028 565.9437567567568 433.7035405405407C565.9437567567568 260.3682162162163 707.0306486486487 119.3083783783785 880.3118648648649 119.3083783783785C1053.6201351351351 119.3083783783785 1194.7070270270272 260.3682162162163 1194.7070270270272 433.7035405405408C1194.7070270270272 606.9577027027028 1053.6201351351353 748.0716486486488 880.3118648648649 748.0716486486488zM1046.559027027027 309.8500810810812A24.42981081081081 24.42981081081081 0 0 0 1037.1171621621622 319.0214054054055A25.70135135135135 25.70135135135135 0 0 0 1036.8736756756757 344.6686486486488A25.64724324324324 25.64724324324324 0 0 0 1071.6922432432432 354.3540000000002A25.64724324324324 25.64724324324324 0 0 0 1081.3775945945945 319.5354324324326A25.376702702702698 25.376702702702698 0 0 0 1046.559027027027 309.8500810810812zM1063.8195135135134 422.1785135135136A24.213378378378376 24.213378378378376 0 0 0 1060.167216216216 434.9750810810812A25.511972972972973 25.511972972972973 0 0 0 1085.8144594594594 460.6223243243245A25.430810810810808 25.430810810810808 0 0 0 1111.4617027027025 435.2456216216218A25.620189189189183 25.620189189189183 0 0 0 1063.8195135135134 422.1785135135136zM941.589297297297 426.3177837837839A62.413702702702686 62.413702702702686 0 0 0 911.478135135135 379.7307027027028A62.386648648648645 62.386648648648645 0 0 0 826.1225945945944 401.7256486486487A62.35959459459459 62.35959459459459 0 0 0 848.1175405405403 487.0541351351352A63.09005405405405 63.09005405405405 0 0 0 903.6324594594593 491.0040270270271L1045.2333783783783 560.3706216216217A24.997945945945947 24.997945945945947 0 0 0 1077.9687837837837 550.6852702702703A24.97089189189189 24.97089189189189 0 0 0 1070.637135135135 517.1652972972972L941.5892972972974 426.3177837837838zM886.8589459459457 460.1082972972973A27.541027027027024 27.541027027027024 0 0 1 853.6095135135133 440.4670540540542A27.486918918918914 27.486918918918914 0 0 1 873.2507567567565 407.2446756756757A27.486918918918914 27.486918918918914 0 0 1 906.5001891891887 426.885918918919A27.351648648648645 27.351648648648645 0 0 1 886.8589459459457 460.1082972972973zM968.8056756756752 589.6972162162162A31.382702702702698 31.382702702702698 0 0 0 959.3908648648646 598.8414864864865A25.593135135135135 25.593135135135135 0 0 0 993.9388918918916 634.2011351351351A25.403756756756753 25.403756756756753 0 0 0 1003.6242432432427 599.3825675675675A25.403756756756753 25.403756756756753 0 0 0 968.8056756756752 589.6972162162162zM878.7427297297294 613.2612972972973A25.10616216216216 25.10616216216216 0 0 0 853.095486486486 638.665054054054C853.095486486486 652.7872702702703 864.3499729729726 664.3122972972974 878.4992432432429 664.3122972972974C892.6214594594591 664.3122972972974 904.146486486486 653.0578108108109 904.146486486486 638.9085405405406A25.48491891891892 25.48491891891892 0 0 0 878.7427297297294 613.2612972972973zM766.7118918918918 231.8532432432433A26.810567567567567 26.810567567567567 0 0 0 757.297081081081 241.2680540540541A25.593135135135135 25.593135135135135 0 0 0 791.8451081081081 276.6006486486487A25.70135135135135 25.70135135135135 0 0 0 801.5304594594595 241.5115405405405A25.863675675675672 25.863675675675672 0 0 0 766.7118918918919 231.8532432432433zM788.9503243243242 588.3715675675676C788.9503243243242 588.1280810810811 788.9503243243242 588.1280810810811 788.7068378378377 588.1280810810811C788.7068378378377 587.8575405405406 788.4362972972972 587.8575405405406 788.4362972972972 587.8575405405406A25.7284054054054 25.7284054054054 0 0 0 753.3471891891891 597.028864864865A25.29554054054054 25.29554054054054 0 0 0 762.2479729729729 631.8474324324325C762.5185135135134 631.8474324324325 762.5185135135134 632.117972972973 762.789054054054 632.117972972973C762.789054054054 632.3614594594594 763.0325405405404 632.3614594594594 763.0325405405404 632.3614594594594A25.620189189189183 25.620189189189183 0 0 0 789.2208648648648 588.3715675675676H788.9503243243241zM681.6268918918919 315.8831351351353A25.29554054054054 25.29554054054054 0 0 0 690.5276756756757 350.7017027027028A25.809567567567566 25.809567567567566 0 0 0 725.6167837837838 342.0444054054055A25.755459459459455 25.755459459459455 0 0 0 716.716 306.9823513513515A25.511972972972973 25.511972972972973 0 0 0 681.6268918918919 315.8831351351353zM688.715054054054 511.6733243243244A27.027 27.027 0 0 0 679.0297027027027 520.8446486486487A26.269486486486485 26.269486486486485 0 0 0 678.759162162162 546.5189459459461A25.70135135135135 25.70135135135135 0 0 0 713.5777297297296 556.2042972972974A25.566081081081077 25.566081081081077 0 0 0 723.5065675675675 521.3586756756758A25.376702702702698 25.376702702702698 0 0 0 688.7150540540539 511.6733243243244zM700.213027027027 431.2957297297299A25.10616216216216 25.10616216216216 0 0 0 674.8363243243243 405.6755405405408A25.16027027027027 25.16027027027027 0 0 0 649.162027027027 430.7817027027029C649.162027027027 444.9309729729731 660.4435675675676 456.4289459459461 674.5657837837838 456.6994864864866C688.4445135135136 456.6994864864866 700.213027027027 445.4450000000002 700.213027027027 431.2957297297299zM882.1515405405405 253.5505945945947C896.3008108108108 253.5505945945947 907.7987837837838 242.0526216216217 907.5552972972972 228.4444324324326A25.48491891891892 25.48491891891892 0 0 0 860.1565945945946 215.0797297297298A25.809567567567566 25.809567567567566 0 0 0 882.1515405405405 253.5505945945947zM1006.7625135135135 269.5395405405407A25.268486486486484 25.268486486486484 0 0 0 997.8617297297296 234.7209729729732A25.322594594594594 25.322594594594594 0 0 0 962.7726216216216 243.621756756757A25.268486486486484 25.268486486486484 0 0 0 971.6734054054054 278.4403243243245A25.890729729729728 25.890729729729728 0 0 0 1006.7625135135135 269.5395405405407zM191.5968108108108 242.8371891891894A40.58108108108108 40.58108108108108 0 0 0 191.5968108108108 323.9722972972975V324.242837837838H398.912027027027A476.6924324324324 476.6924324324324 0 0 1 424.0452432432433 244.9203513513517A38.14621621621621 38.14621621621621 0 0 0 411.7356486486487 242.8371891891894H191.5968108108108zM65.9307297297297 542.8395945945947C43.6922972972973 542.8395945945947 25.3496486486486 560.8846486486487 25.3496486486486 583.4206756756757C25.3496486486486 605.6591081081081 43.4217567567568 623.9747027027028 65.9307297297297 623.9747027027028H411.7356486486487C415.929027027027 623.9747027027028 420.1224054054054 622.9466486486488 423.7747027027027 621.8644864864866A477.77459459459465 477.77459459459465 0 0 1 398.6685405405405 542.8395945945947H65.9307297297297zM122.4737027027027 473.9870270270271H388.4421081081081A509.6983783783783 509.6983783783783 0 0 1 386.6024324324324 433.7035405405407C386.6024324324324 419.7977567567569 387.387 406.1895675675677 388.1715675675676 392.824864864865H122.4737027027027C100.2352702702703 392.824864864865 81.8926216216216 411.1675135135137 81.8926216216216 433.4059459459461C81.8926216216216 455.6714324324325 99.9647297297297 473.9870270270271 122.4737027027027 473.9870270270271z" />
    <glyph glyph-name="adv-ico-2"
      unicode="&#xE002;"
      horiz-adv-x="1092" d="M1079.8287500000001 116.09325L917.9170000000001 18.6094999999999A25.025000000000002 25.025000000000002 0 0 0 903.7210000000002 14.2415H45.9095A25.298000000000005 25.298000000000005 0 1 0 45.9095 64.8147499999999H117.00325L676.01625 672.0577499999999A26.481 26.481 0 1 0 715.0097499999999 636.15825L189.02975 64.8147499999999H661.5927499999999L658.4532499999999 76.713C610.0639999999999 73.4142499999999 559.9684999999998 119.50575 547.4332499999999 167.28075C529.4379999999999 235.8492500000001 572.5719999999999 349.1670000000001 572.5719999999999 349.1670000000001C581.6492499999999 372.9862500000001 604.9907499999999 378.99225 624.4192499999999 362.4757500000001C624.4192499999999 362.4757500000001 687.3912499999999 308.96775 724.1552499999999 244.0392500000001L726.5212499999999 248.08875C699.2667499999999 275.0020000000001 697.9472499999999 331.4447500000001 718.1947499999999 366.1157500000001C741.0357499999999 405.2230000000001 834.7884999999999 455.70525 834.7884999999999 455.70525C857.2427499999999 467.7855 875.9205 456.84275 876.2844999999999 431.31725C876.2844999999999 431.31725 877.8087499999998 323.05 855.9459999999999 285.6262500000001C838.2692499999998 255.36875 799.7989999999999 232.5732500000001 766.4247499999998 232.5732500000001C758.9399999999998 232.5732500000001 752.0012499999998 233.7789999999999 745.6767499999999 236.03125L735.4392499999998 218.491L735.9397499999998 216.73925C748.7934999999998 167.8040000000001 726.4302499999998 101.0327500000001 680.4297499999998 81.8545L684.9114999999997 64.8147499999999H765.6967499999997L780.3249999999998 90.0445C752.5927499999998 114.22775 744.2662499999998 159.2272499999999 752.7747499999998 198.1525C757.2109999999998 197.5609999999999 761.7609999999999 197.26525 766.4247499999998 197.26525C812.0839999999998 197.26525 862.5662499999999 226.9084999999999 886.4537499999998 267.79025C896.7367499999997 285.3987500000001 903.1067499999996 310.947 906.9742499999998 338.8612500000001C934.3879999999996 353.33025 955.7957499999998 347.3014999999999 956.6147499999998 324.5287500000001C958.52575 271.0435 958.1389999999998 175.3797500000001 934.1377499999998 134.2705C908.6122499999998 90.5677500000001 845.5719999999998 59.17275 799.5032499999999 78.14625L791.7227499999999 64.8147500000001H896.6002499999998L1053.7345 159.432A25.320749999999997 25.320749999999997 0 0 0 1079.82875 116.09325zM810.33225 814.15425C810.33225 789.5387499999999 804.0305 776.25275 798.95725 765.5375C795.04425 757.2565 792.6782499999999 752.2742499999999 792.6782499999999 739.6025A26.481 26.481 0 0 0 739.67075 739.6025C739.67075 764.2180000000001 745.9952499999999 777.52675 751.0684999999999 788.21925C754.9814999999999 796.50025 757.3475 801.4825000000001 757.3475 814.15425C757.3475 826.84875 754.9815 831.831 751.0684999999999 840.08925C745.9952499999999 850.8045 739.67075 864.11325 739.67075 888.706C739.67075 913.34425 745.9952499999999 926.653 751.0684999999999 937.3455C754.9814999999999 945.6265 757.3475 950.60875 757.3475 963.2805A26.481 26.481 0 1 0 810.33225 963.2805C810.33225 938.68775 804.0305 925.35625 798.95725 914.66375C795.04425 906.38275 792.6782499999999 901.4005 792.6782499999999 888.706C792.6782499999999 876.057 795.0442499999999 871.052 798.95725 862.79375C804.0305 852.0785 810.33225 838.7697499999999 810.33225 814.15425zM666.8025 761.1695C666.8025 736.554 660.478 723.2452499999999 655.4047499999999 712.53C651.4917499999999 704.249 649.1257499999999 699.2895 649.1257499999999 686.595A26.481 26.481 0 0 0 596.1182499999999 686.595C596.1182499999999 711.18775 602.4427499999999 724.51925 607.516 735.2345C611.429 743.49275 613.795 748.49775 613.795 761.1695C613.795 773.84125 611.429 778.8235 607.516 787.08175C602.4427499999999 797.797 596.1182499999999 811.1285 596.1182499999999 835.72125C596.1182499999999 860.3367499999999 602.4427499999999 873.6455 607.516 884.338C611.429 892.619 613.795 897.60125 613.795 910.29575A26.503750000000004 26.503750000000004 0 0 0 666.8024999999999 910.29575C666.8024999999999 885.703 660.478 872.34875 655.4047499999998 861.65625C651.4917499999998 853.398 649.1257499999998 848.393 649.1257499999998 835.72125C649.1257499999998 823.0495 651.4917499999998 818.0672500000001 655.4047499999998 809.78625C660.4779999999998 799.09375 666.8024999999999 785.76225 666.8024999999999 761.1695z" />
    <glyph glyph-name="adv-ico-3"
      unicode="&#xE003;"
      horiz-adv-x="886.6" d="M838.552 885.9422H825.2816000000001C810.0092000000001 713.5699999999999 709.1084000000001 581.2378 630.63 487.2582C709.0798 393.2785999999999 810.0378000000001 260.9749999999999 825.253 88.5742H838.4948A44.2442 44.2442 0 1 0 838.552 0H63.349A44.301399999999994 44.301399999999994 0 0 0 63.349 88.5742H76.5908C91.8346 260.9749999999999 192.764 393.3072000000001 271.2138000000001 487.2582C192.7354 581.2092 91.8346 713.5699999999999 76.5908 885.9422H63.349A44.301399999999994 44.301399999999994 0 0 0 63.349 974.545H838.552A44.272800000000004 44.272800000000004 0 1 0 838.552 885.9422zM165.3938000000001 885.885C182.0390000000001 730.1007999999999 283.3116000000001 610.181 358.9586000000001 520.5486L362.9912000000001 515.7724A44.2442 44.2442 0 0 0 362.9912000000001 458.6582L358.9300000000001 453.8534C283.2830000000001 364.2782 182.0390000000001 244.3584 165.3938000000001 88.5742H736.4786C719.8334000000001 244.3584 618.5894000000001 364.2782 542.9424 453.8534L538.9098000000001 458.6582A44.2442 44.2442 0 0 0 538.9098000000001 515.7724L542.9138000000002 520.5486C618.5608000000001 610.181 719.8334000000001 730.1007999999999 736.4786000000001 885.885H165.3938zM473.0726 509.4804A22.136400000000002 22.136400000000002 0 0 0 428.7998 509.4804A110.45320000000001 110.45320000000001 0 0 1 402.8024000000001 580.4369999999999C365.6224 624.5096 337.7946 672.3001999999999 320.1198 722.4646A22.1936 22.1936 0 0 0 341.0264 751.9798H560.8174A22.1078 22.1078 0 0 0 581.6954 722.4646C564.0491999999999 672.3001999999999 536.1927999999999 624.5095999999999 499.0128 580.4369999999999A110.5104 110.5104 0 0 1 473.0726 509.4804zM428.7998 420.7345999999999A22.136400000000002 22.136400000000002 0 0 0 473.0726 420.7345999999999C473.1012000000001 388.7598 492.2060000000001 357.1281999999999 526.8692000000001 331.5025999999999C600.9718 276.7907999999999 656.4558000000001 217.3313999999999 691.7196 154.8403999999999A22.1078 22.1078 0 0 0 672.4432 121.8359999999999H229.4578A22.079200000000004 22.079200000000004 0 0 0 210.1814 154.8403999999999C245.4738 217.3313999999999 300.9292 276.7907999999999 375.0318000000001 331.5025999999999C409.6664 357.1281999999999 428.7712 388.7597999999998 428.7998 420.7345999999999z" />
    <glyph glyph-name="adv-ico-4"
      unicode="&#xE004;"
      horiz-adv-x="1029.6000000000001" d="M1010.6954 880.451L854.9398000000001 621.2206H925.1814000000002C961.5034000000002 621.2206 993.3352000000002 601.0862 1008.2072000000002 568.6823999999999C1022.9648 536.5645999999999 1017.6166000000002 499.6419999999999 994.2218000000001 472.3004L978.3202000000002 453.3385999999999A39.096199999999996 39.096199999999996 0 0 0 918.4604000000002 503.5315999999999L934.5050000000002 522.665L934.7910000000002 523.0082C939.3384 528.2991999999999 938.6234000000002 533.0182 937.1934000000002 536.0784C935.9922000000003 538.7095999999999 932.8462000000002 543.0853999999999 925.1814000000002 543.0853999999999H785.8994000000001A39.1248 39.1248 0 0 0 752.4088000000002 602.2588L908.1644000000002 861.4892H767.338L551.1220000000001 490.4614A38.3526 38.3526 0 0 1 552.0372 452.2232C555.4406 446.4746 565.5364000000001 433.0898 585.6136 433.0898H679.393A39.067600000000006 39.067600000000006 0 0 0 716.144 380.8376000000001L631.0304 143.7436L789.8748 350.2928000000001A39.067600000000006 39.067600000000006 0 0 0 851.8224000000001 302.6738000000002L638.2948000000001 24.9964000000002A34.806200000000004 34.806200000000004 0 0 0 634.9772 21.2212000000003A73.645 73.645 0 0 0 583.3542000000001 0.0286000000003H583.0396000000001C560.1310000000002 0.0286000000003 539.8822000000001 10.2102000000003 528.8426000000001 27.2844000000003C518.8326000000001 42.7570000000003 517.517 61.8904000000005 525.1532000000001 80.0228000000004L623.8518000000001 354.9546000000004H585.6422000000001A116.2304 116.2304 0 0 0 484.8272000000002 412.3262000000005A116.25900000000003 116.25900000000003 0 0 0 482.7394000000002 528.2992000000004L483.2828000000001 529.2430000000004L711.1104000000001 920.2336000000004C718.1174000000002 932.2456000000004 730.9874000000002 939.6244000000004 744.8870000000002 939.6244000000004H977.2048000000002A38.9818 38.9818 0 0 0 1010.6954000000002 880.4510000000005zM514.371 863.434A39.096199999999996 39.096199999999996 0 0 0 475.3034 902.5016V961.103A39.096199999999996 39.096199999999996 0 1 0 553.4386 961.103V902.5016C553.4386 880.9372 535.9639999999999 863.434 514.371 863.434zM525.8968 768.3676C528.099 746.9176 512.4548 727.6984 491.0048 725.5247999999999C488.2306 725.2388000000001 485.4278 724.8956000000001 482.6822 724.5237999999999C371.5712 708.994 287.7732 612.4975999999999 287.7732 500.0996A226.512 226.512 0 0 1 472.6722 277.3342C474.9029999999999 276.9338 477.1052 276.5334000000001 479.336 276.1902000000001A39.067600000000006 39.067600000000006 0 1 0 467.3525999999999 198.9702000000001A304.6186 304.6186 0 0 0 209.638 500.0996A304.733 304.733 0 0 0 483.054 803.2596C504.504 805.4331999999999 523.6946 789.8176 525.8968000000001 768.3676zM333.6475999999999 818.4462A38.9532 38.9532 0 0 0 279.9081999999999 831.259L250.5932 878.8494000000001A39.067600000000006 39.067600000000006 0 1 0 317.1168000000001 919.8332L346.4318000000001 872.2142A39.067600000000006 39.067600000000006 0 0 0 333.6476000000001 818.4462zM168.5969999999999 673.959C161.9903999999999 673.959 155.3265999999999 675.6178 149.1775999999999 679.1356L101.5013999999999 706.4771999999999A39.096199999999996 39.096199999999996 0 0 0 140.3687999999999 774.2878L188.0449999999999 746.9462A39.096199999999996 39.096199999999996 0 0 0 168.5969999999999 673.959zM151.0365999999999 500.0996C151.0365999999999 478.5351999999999 133.5333999999999 461.0606 111.9689999999999 461.0606H53.3676A39.067600000000006 39.067600000000006 0 1 0 53.3676 539.1672000000001H111.969C133.5334 539.1672000000001 151.0366 521.6926000000001 151.0366 500.0996000000001zM96.2675999999999 303.7892L145.8313999999999 331.1594A39.067600000000006 39.067600000000006 0 0 0 183.6119999999999 262.7482L134.0195999999999 235.378A39.067600000000006 39.067600000000006 0 0 0 96.2675999999999 303.7892zM267.6959999999999 176.0043999999999A39.067600000000006 39.067600000000006 0 0 0 335.1919999999999 136.6222L306.6491999999999 87.6876A39.096199999999996 39.096199999999996 0 0 0 239.1531999999999 127.0984000000001L267.6959999999999 176.0044z" />
    <glyph glyph-name="arr-left"
      unicode="&#xE005;"
      horiz-adv-x="535.880172413793" d="M475.475 990.644827586207C482.378448275862 997.548275862069 491.0077586206896 1001 500.4999999999999 1001C509.9922413793103 1001 518.6215517241379 997.548275862069 525.525 990.644827586207C539.3318965517241 976.8379310344828 539.3318965517241 954.401724137931 525.525 940.5948275862067L85.4301724137931 500.5000000000001L525.525 60.4051724137931C539.3318965517241 46.5982758620692 539.3318965517241 24.1620689655173 525.525 10.3551724137932C511.7181034482758 -3.4517241379309 489.2818965517241 -3.4517241379309 475.475 10.3551724137932L10.3551724137931 475.475C-3.451724137931 489.2818965517242 -3.451724137931 511.7181034482759 10.3551724137931 525.5250000000001L475.475 990.644827586207z" />
    <glyph glyph-name="arr-right"
      unicode="&#xE006;"
      horiz-adv-x="535.880172413793" d="M60.4051724137931 10.3551724137932C53.501724137931 3.4517241379311 44.8724137931035 1e-13 35.3801724137931 1e-13S17.2586206896552 3.4517241379311 10.3551724137931 10.3551724137932C-3.451724137931 24.1620689655173 -3.451724137931 46.5982758620692 10.3551724137931 60.4051724137931L450.45 500.5000000000001L10.3551724137931 940.5948275862067C-3.451724137931 954.401724137931 -3.451724137931 976.8379310344828 10.3551724137931 990.644827586207S46.598275862069 1004.451724137931 60.4051724137931 990.644827586207L525.525 525.5250000000001C539.3318965517241 511.7181034482759 539.3318965517241 489.2818965517242 525.525 475.475L60.4051724137931 10.3551724137932z" />
    <glyph glyph-name="arrow-down"
      unicode="&#xE007;"
      horiz-adv-x="1000.9999999999999" d="M500.4988923241717 215.2014752781362C482.5589746086617 215.2014752781362 464.6212722448086 222.0513426004819 450.9436911166833 235.7222776736372L20.5363098570976 666.1340896365363C-6.8432212673759 693.5136207610099 -6.8432212673759 737.9048372568591 20.5363098570976 765.2732916230493C47.904764223288 792.6417459892398 92.2871193125107 792.6417459892398 119.6688657886409 765.2732916230493L500.4988923241717 384.4211115709521L881.3311342113592 765.2599995131095C908.7106653358326 792.6284538792997 953.088589721742 792.6284538792997 980.4548287362755 765.2599995131095C1007.8476519706892 737.8915451469192 1007.8476519706892 693.5003286510698 980.4548287362755 666.1207975265963L550.05409353166 235.7089855636974C536.3698663485649 222.0358351388854 518.4321639847117 215.2014752781362 500.4988923241717 215.2014752781362z" />
    <glyph glyph-name="balance"
      unicode="&#xE008;"
      horiz-adv-x="905.6666666666666" d="M641.7363333333333 701.0575C688.1636666666666 701.0575 729.3715 685.2321666666667 745.1253333333333 626.0063333333333C760.9506666666666 566.7328333333332 877.2573333333332 131.3216666666667 884.4073333333332 106.9401666666666C893.3209999999999 76.3619999999999 890.5563333333333 36.4649999999999 828.2798333333333 36.4649999999999H776.3231666666667V3.0268333333332H115.3771666666667V36.4888333333332H70.9756666666667C8.7706666666667 36.4888333333332 6.006 76.3858333333332 14.9196666666667 106.9639999999998C22.0696666666667 131.3454999999999 138.3763333333333 566.7566666666665 154.1778333333333 626.0063333333331C169.9793333333333 685.2559999999999 211.1633333333333 701.0813333333331 257.5668333333333 701.0813333333331H397.6115V754.5633333333334C96.6918333333333 770.2218333333333 33.748 990.6801666666667 33.748 990.6801666666667H846.9174999999999S771.8663333333332 781.9716666666667 490.4423333333332 755.7788333333333V701.0575000000001H641.7363333333332zM449.6635 644.5248333333334C297.3446666666666 644.5248333333334 173.8879999999999 521.1158333333333 173.8879999999999 368.7493333333334C173.8879999999999 216.4066666666667 297.3446666666666 92.9500000000002 449.6635 92.9500000000002C602.0538333333332 92.9500000000002 725.5104999999999 216.4066666666669 725.5104999999999 368.7493333333334C725.5104999999999 521.1158333333335 602.0538333333332 644.5248333333334 449.6635 644.5248333333334zM629.9626666666666 454.5731666666667C627.8653333333333 458.8155 625.4105 463.034 623.1225 467.1333333333334L659.2061666666666 486.8911666666668L666.0939999999999 474.3071666666667L629.9626666666667 454.5731666666668zM643.5238333333333 222.2696666666667L608.1074999999998 247.5091666666667C610.9913333333332 251.2748333333334 614.2564999999998 254.8498333333335 616.8543333333332 258.8776666666668L651.9131666666666 233.9718333333334L643.5238333333333 222.2696666666667zM550.0018333333333 541.1835000000001L569.9741666666666 574.4548333333335L582.3436666666665 567.0426666666667L562.5858333333332 534.1288333333334C558.5579999999999 536.7981666666667 554.1249999999999 538.7286666666668 550.0018333333333 541.1835000000001zM552.7903333333333 149.4111666666669L533.8905 187.6160000000002C538.252 189.5941666666669 542.3751666666667 192.1681666666669 546.5221666666666 194.5515000000002L565.7556666666667 155.7985000000002L552.7903333333333 149.4111666666669zM454.1441666666666 336.6220000000002C451.1411666666666 336.6220000000002 448.5195 337.7183333333335 445.7071666666667 338.3380000000002L376.3045 222.2696666666669L365.2458333333334 228.5378333333336L427.0456666666667 346.7511666666669C416.9641666666667 354.8783333333336 410.1001666666667 366.7711666666669 410.1001666666667 380.6898333333335A44.09166666666667 44.09166666666667 0 1 0 454.1441666666666 336.6220000000002zM454.168 393.2976666666669A12.631666666666668 12.631666666666668 0 1 1 466.8473333333333 380.6898333333335A12.631666666666668 12.631666666666668 0 0 1 454.168 393.2976666666669zM446.0646666666667 568.6633333333335V604.8900000000001H460.4361666666667V567.9483333333335C456.7896666666667 568.1390000000001 453.3815000000001 569.0208333333335 449.6396666666667 569.0208333333335C448.4480000000001 569.0208333333335 447.2563333333334 568.6633333333335 446.0646666666668 568.6633333333335zM340.8166666666667 576.7190000000003L353.7581666666667 583.1301666666668L369.1783333333334 551.9323333333334C364.793 549.9303333333335 360.789 547.2848333333334 356.5466666666667 545.0445000000001L340.8166666666667 576.719zM357.0233333333333 192.2158333333337L336.5505 158.2533333333337L324.2048333333333 165.6655000000004L344.3201666666667 199.1275000000005C348.4195 196.6488333333339 352.7333333333333 194.5038333333338 357.0233333333333 192.2158333333339zM254.683 498.5695000000003L263.0485 510.2716666666669L291.3386666666666 490.1325000000003C288.3833333333333 486.2953333333336 285.1658333333333 482.744166666667 282.568 478.7640000000004L254.683 498.5695000000003zM214.8098333333333 359.0730000000002V373.4683333333336H249.9163333333334C249.8448333333334 371.8476666666669 249.392 370.3938333333336 249.392 368.7493333333336C249.392 365.4365000000003 250.25 362.3620000000002 250.3691666666667 359.0730000000002H214.8098333333333zM279.851 263.6443333333337L247.2946666666667 245.8885000000003L240.3830000000001 258.4963333333336L273.0585000000001 276.2760000000003C275.2511666666668 272.0098333333337 277.3961666666667 267.7675000000003 279.8510000000001 263.6443333333335zM460.4361666666667 169.5980000000004V127.818166666667H446.0646666666667V168.8353333333338C447.2563333333334 168.8353333333338 448.4480000000001 168.501666666667 449.6396666666667 168.501666666667C453.3815 168.501666666667 456.7896666666667 169.4073333333337 460.4361666666666 169.5980000000004zM649.9826666666667 368.7493333333338C649.9826666666667 370.3938333333338 649.5298333333334 371.847666666667 649.5536666666667 373.4921666666671H691.8340000000001V359.1206666666671H649.0293333333334C649.1961666666667 362.3620000000004 649.9826666666667 365.4841666666671 649.9826666666667 368.7493333333338z" />
    <glyph glyph-name="icon-1"
      unicode="&#xE009;"
      horiz-adv-x="858.76806640625" d="M813.8208203125 741.69798828125C811.3183203125001 744.9238671875 808.7376171875 748.07154296875 806.09826171875 751.12146484375C853.50890625 799.9788671875 869.540546875 862.83462890625 847.9173828125 925.8858984375L836.3237695312499 959.68919921875L803.7130664062499 945.06521484375C752.9201367187499 922.2885546875 712.56732421875 942.269453125 665.8214062499999 965.417578125C602.9460937499999 996.542421875 525.8573632812498 1034.72509765625 429.3547070312499 946.5315234375C332.8911523437499 1034.72509765625 255.802421875 996.542421875 192.9271093749999 965.417578125C146.2007421874999 942.269453125 105.8283789062499 922.2885546875 55.0354492187499 945.06521484375L22.4247460937499 959.68919921875L10.8506835937499 925.8858984375C-10.7529296875001 862.83462890625 5.2787109374999 799.9788671875 52.6698046874999 751.1019140625C50.0304492187499 748.0519921875 47.4497460937499 744.90431640625 44.9472460937499 741.6784375C-4.5162304687501 677.8451367187499 -13.3531835937501 602.26181640625 19.4139257812499 523.100703125C37.146484375 480.2649414062499 62.66025390625 447.712890625 74.840390625 433.5776757812499C79.454375 335.98017578125 123.9910546875 257.3664843750001 204.71623046875 204.52072265625C235.5478125 98.71189453125 309.52796875 28.5441406250001 421.82765625 1.7986718750001L429.3742578125 0L436.920859375 1.7986718750001C549.2205468750001 28.5441406250001 623.200703125 98.71189453125 654.03228515625 204.52072265625C734.7574609375001 257.3664843750001 779.2941406250001 335.9801757812501 783.908125 433.5776757812499C796.0882617187501 447.712890625 821.60203125 480.2649414062499 839.3541406250001 523.12025390625C872.1016992187501 602.26181640625 863.2842968750001 677.8451367187499 813.8208203125001 741.69798828125zM66.550859375 873.0987890625C128.0576171875 860.52763671875 179.30021484375 885.885 221.862265625 906.9607421875C287.25962890625 939.3368359375 330.4473046875 960.725390625 405.22904296875 878.3383984375L429.3742578125 851.7493359375001L453.5194726562499 878.3383984375C528.3012109375 960.70583984375 571.5084375 939.3368359375 636.88625 906.9607421875C679.4483007812499 885.885 730.6908984375 860.5080859375 792.19765625 873.0987890625C793.9376757812499 815.0720703125 741.9912499999999 778.6294140625 716.67298828125 764.37689453125C636.964453125 719.5078515625 514.029140625 715.30443359375 454.3992578125 786.7625390625L429.35470703125 816.77298828125L404.32970703125 786.7625390625C344.69982421875 715.30443359375 221.76451171875 719.5078515625 142.07552734375 764.37689453125C116.757265625 778.6294140625 64.81083984375 815.05251953125 66.550859375 873.0987890625zM779.763359375 549.6897656250001C778.1601953125 545.72095703125 776.45927734375 541.8694531250001 774.6997070312501 538.1157031250001C765.7845507812501 579.5438085937501 753.7999218750001 607.22771484375 753.0178906250002 609.0068359375L693.3098046875001 582.78923828125C693.5639648437501 582.2222656250001 717.80693359375 526.20927734375 719.0972851562501 456.3543359375001C720.2116796875001 395.5709570312501 703.6717187500002 344.69982421875 669.8293164062501 304.26880859375C670.8068554687501 326.1461328125 670.4744921875001 349.0205468749999 668.7149218750002 372.8725000000001L603.6694726562502 368.1216601562501C609.2414453125002 291.67810546875 599.3096484375002 227.78615234375 574.1477929687502 178.1858203125C545.4081445312502 121.5667578125 498.0170507812501 85.18275390625 429.3938085937501 67.15693359375C360.7705664062501 85.18275390625 313.3794726562501 121.5667578124999 284.6398242187501 178.1858203125C259.4584179687501 227.78615234375 249.5266210937501 291.67810546875 255.1181445312501 368.12166015625L190.0726953125001 372.8725C188.3326757812501 349.0205468749999 187.9807617187501 326.1461328125 188.9583007812501 304.2883593750001C155.4873632812501 344.2892578125 138.9278515625001 394.5347656249999 139.6512304687501 454.45791015625C140.4919140625001 524.52791015625 165.2432031250001 582.2809179687499 165.4973632812501 582.86744140625L135.6042187500001 595.92736328125L105.7501757812501 609.0459375C104.9681445312501 607.26681640625 92.9835156250001 579.58291015625 84.0683593750001 538.1548046875C82.5433984375001 541.3806835937501 81.0770898437501 544.70431640625 79.6694335937501 548.0866015625C56.0520898437501 605.1748828125001 61.7022656250001 656.8866992187501 96.5026562500001 701.7948437500002C98.9856054687501 705.0011718750001 101.5858593750001 708.0706445312501 104.2447656250001 711.0032617187501C106.1802929687501 709.8497656250001 108.1158203125001 708.6962695312501 110.0904492187501 707.5818750000001C204.9703906250001 654.1691406250002 343.1357617187501 647.42412109375 429.3938085937501 719.8988671875002C473.4808203125001 682.8501367187502 531.1165234375002 666.5056835937501 589.6124609375 666.5056835937501C645.5667968750001 666.5056835937501 702.3031640625001 681.4620312500001 748.6971679687501 707.5818750000001C750.6913476562501 708.6962695312501 752.6073242187501 709.8497656250001 754.5428515625001 711.0032617187501C757.2017578125001 708.0706445312501 759.8020117187501 705.0011718750002 762.2849609375 701.7948437500002C796.7138867187501 657.2777148437501 802.598671875 606.13287109375 779.763359375 549.6897656250001z" />
    <glyph glyph-name="icon-2"
      unicode="&#xE00A;"
      horiz-adv-x="2672.116788321168" d="M2660.113138686131 562.6058394160584C2630.3649635036495 678.9890510948906 2553.124087591241 755.7080291970804 2448.222627737226 772.9306569343066C2433.6094890510944 775.5401459854014 2418.9963503649633 776.5839416058394 2404.905109489051 776.5839416058394C2299.4817518248174 776.5839416058394 2220.1532846715327 714.4781021897811 2217.021897810219 628.3649635036496C2215.9781021897807 607.4890510948906 2227.4598540145985 588.1788321167883 2245.7262773722623 578.2627737226278S2286.434306569343 569.9124087591241 2303.6569343065694 581.9160583941606C2312.529197080292 588.1788321167883 2327.142335766423 592.3540145985402 2342.2773722627735 592.3540145985402C2366.2846715328465 592.3540145985402 2405.948905109489 583.4817518248176 2405.948905109489 525.029197080292C2405.948905109489 505.7189781021897 2391.8576642335765 476.492700729927 2352.1934306569337 476.492700729927C2327.664233576642 476.492700729927 2275.996350364963 487.9744525547445 2200.3211678832113 566.2591240875913C2183.0985401459848 584.5255474452555 2161.178832116788 609.0547445255474 2136.1277372262766 638.2810218978102C2010.8722627737227 782.8467153284672 1821.4233576642337 1001 1618.92700729927 1001C1487.9306569343064 1001 1387.2043795620439 943.0693430656934 1336.058394160584 904.970802919708C1284.390510948905 943.0693430656934 1184.1861313868612 1001 1053.189781021898 1001C850.6934306569343 1001 661.2445255474454 782.8467153284672 535.9890510948906 638.2810218978102C510.9379562043796 609.5766423357665 489.5401459854015 584.5255474452555 471.7956204379563 566.2591240875913C396.6423357664234 487.9744525547445 344.4525547445257 476.492700729927 319.9233576642337 476.492700729927C303.2226277372264 476.492700729927 289.653284671533 481.7116788321168 279.7372262773723 492.1496350364964C271.3868613138687 501.021897810219 266.1678832116789 513.0255474452555 266.1678832116789 525.029197080292C266.1678832116789 583.4817518248176 306.3540145985403 592.3540145985402 329.8394160583943 592.3540145985402C344.4525547445257 592.3540145985402 359.065693430657 588.1788321167883 368.4598540145987 581.9160583941606C377.8540145985403 575.1313868613139 389.3357664233578 571.4781021897811 400.2956204379563 571.4781021897811C430.565693430657 571.4781021897811 454.57299270073 596.007299270073 454.57299270073 625.7554744525548C454.57299270073 627.8430656934307 454.57299270073 630.4525547445256 454.0510948905111 632.5401459854015C448.3102189781023 716.043795620438 370.0255474452555 776.5839416058394 266.1678832116789 776.5839416058394C251.5547445255475 776.5839416058394 236.9416058394161 775.5401459854014 222.8503649635037 772.9306569343066C118.992700729927 755.7080291970804 41.7518248175183 678.9890510948906 12.0036496350365 562.6058394160584C-22.963503649635 424.8248175182481 15.6569343065693 226.5036496350365 158.1350364963504 115.3394160583943C225.4598540145986 62.6277372262774 341.8430656934307 1e-13 513.0255474452555 1e-13C751.5328467153284 1e-13 1028.1386861313867 119.5145985401462 1336.058394160584 355.9343065693432C1643.978102189781 119.5145985401462 1921.1058394160584 1e-13 2159.0912408759123 1e-13C2330.2737226277372 1e-13 2446.6569343065694 62.6277372262774 2513.9817518248174 115.3394160583943C2656.4598540145985 226.5036496350366 2695.0802919708026 424.3029197080293 2660.113138686131 562.6058394160584zM2447.1788321167883 200.9306569343065C2393.423357664233 158.6569343065693 2299.4817518248174 108.5547445255475 2159.613138686131 108.5547445255475C1937.8065693430651 108.5547445255475 1672.1605839416056 229.1131386861314 1369.9817518248171 467.0985401459855C1360.0656934306567 474.9270072992701 1348.0620437956202 478.5802919708029 1336.0583941605837 478.5802919708029S1312.0510948905107 474.4051094890511 1302.13503649635 467.0985401459855C1000.478102189781 229.6350364963503 734.8321167883212 108.5547445255475 513.0255474452555 108.5547445255475C373.1569343065694 108.5547445255475 279.2153284671533 158.6569343065693 225.4598540145985 200.9306569343065C121.0802919708029 282.3467153284671 92.3759124087591 434.2189781021898 117.948905109489 535.4671532846714C127.3430656934306 571.9999999999999 151.3503649635036 632.0182481751824 210.8467153284671 656.5474452554744C179.5328467153284 627.3211678832116 158.1350364963503 584.0036496350364 158.1350364963503 525.0291970802919C158.1350364963503 485.3649635036496 174.3138686131387 445.7007299270072 201.9744525547445 416.4744525547444C232.2445255474452 384.6386861313869 274.5182481751824 367.4160583941605 320.9671532846715 367.4160583941605C371.5912408759123 367.4160583941605 453.0072992700729 388.8138686131386 551.1240875912408 490.5839416058394C570.434306569343 510.9379562043795 592.8759124087591 536.5109489051094 618.970802919708 566.7810218978102C724.3941605839415 688.383211678832 900.7956204379562 891.9233576642334 1053.7116788321166 891.9233576642334C1198.2773722627735 891.9233576642334 1297.4379562043794 796.4160583941605 1297.9598540145985 795.8941605839415C1319.3576642335765 774.4963503649634 1353.802919708029 774.4963503649634 1375.2007299270074 795.8941605839415C1376.2445255474452 796.9379562043795 1473.3175182481752 891.9233576642334 1619.448905109489 891.9233576642334C1772.3649635036497 891.9233576642334 1948.7664233576645 688.383211678832 2054.189781021898 566.7810218978102C2080.284671532847 536.5109489051094 2102.7262773722628 510.9379562043795 2122.0364963503653 490.5839416058394C2220.153284671533 388.8138686131387 2301.5693430656934 367.4160583941606 2352.1934306569347 367.4160583941606C2453.963503649635 367.4160583941606 2515.0255474452556 447.7883211678832 2515.0255474452556 525.029197080292C2515.0255474452556 584.0036496350365 2493.6277372262775 627.8430656934306 2462.3138686131388 656.5474452554745C2521.810218978102 632.0182481751824 2545.817518248175 572.521897810219 2555.211678832117 535.4671532846714C2580.262773722628 434.2189781021898 2551.036496350365 282.8686131386862 2447.1788321167883 200.9306569343065zM1458.1824817518248 709.2591240875913C1439.9160583941605 733.2664233576643 1405.4708029197077 737.4416058394161 1381.463503649635 718.6532846715329C1361.6313868613138 702.9963503649635 1350.1496350364962 690.992700729927 1349.1058394160584 689.948905109489C1328.7518248175181 668.029197080292 1329.2737226277372 633.5839416058394 1351.7153284671533 612.7080291970804C1362.153284671533 602.7919708029196 1375.7226277372263 598.094890510949 1388.7700729927008 598.094890510949C1403.3832116788324 598.094890510949 1417.4744525547446 603.8357664233577 1428.4343065693433 615.3175182481751C1428.4343065693433 615.3175182481751 1435.740875912409 622.6240875912408 1448.7883211678834 633.0620437956204C1472.2737226277372 651.3284671532847 1476.4489051094893 685.7737226277372 1458.182481751825 709.2591240875913zM2074.021897810219 434.2189781021898C2060.4525547445255 449.3540145985402 2043.751824817518 469.7080291970804 2024.441605839416 493.7153284671534C1925.28102189781 615.8394160583942 1774.9744525547444 801.1131386861314 1610.0547445255474 801.1131386861314C1592.3102189781023 801.1131386861314 1574.043795620438 799.5474452554745 1556.2992700729926 796.9379562043796C1526.551094890511 792.2408759124088 1506.1970802919707 764.058394160584 1510.8941605839416 734.8321167883212C1515.5912408759123 705.0839416058395 1543.7737226277372 684.7299270072994 1573.521897810219 689.4270072992701C1585.5255474452556 691.514598540146 1598.051094890511 692.5583941605839 1610.0547445255474 692.5583941605839C1722.784671532847 692.5583941605839 1858.478102189781 525.551094890511 1939.8941605839416 425.8686131386862C1960.2481751824816 400.8175182481753 1977.9927007299273 378.8978102189782 1993.1277372262773 362.1970802919709C2004.087591240876 350.1934306569344 2018.7007299270067 343.9306569343067 2033.8357664233577 343.9306569343067C2046.883211678832 343.9306569343067 2059.9306569343066 348.6277372262774 2070.368613138686 358.021897810219C2092.810218978102 377.3321167883213 2094.375912408759 411.7773722627737 2074.021897810219 434.2189781021898z" />
    <glyph glyph-name="icon-3"
      unicode="&#xE00B;"
      horiz-adv-x="2962.5338597545274" d="M2939.1648785511975 700.7257746116213C2918.45927388207 728.8201012788602 2886.155093983349 744.8862758561497 2850.4142992017855 744.8862758561497C2819.312934512059 744.8862758561497 2788.2115698223333 733.3736159986267 2752.4707750407697 708.5440734700883C2701.608874774698 673.2328555488798 2697.3990215432154 670.3117328984636 2610.109003519012 670.3117328984636C2519.9837782164627 670.3117328984636 2431.4909449832635 731.8271393013474 2329.0798214745523 802.9650673761907C2195.6532486481847 895.8395845850141 2044.356278431036 1001 1839.5340314136129 1001C1753.704574714617 1001 1625.9484164449404 976.514118959746 1481.266929877264 867.9170886619174C1336.5854433095872 976.514118959746 1208.8292850399107 1001 1122.999828340915 1001C918.1775813234916 1001 766.8806111063428 895.8395845850141 633.4540382799761 803.136898120333C530.9569993991931 731.9130546734186 442.4641661659944 670.3976482705348 352.3389408634452 670.3976482705348C265.0489228392413 670.3976482705348 260.92498497983 673.2328555488799 209.9771693416874 708.6299888421595C174.2363745601236 733.3736159986267 143.1350098703974 744.9721912282208 112.0336451806712 744.9721912282208C76.3787657711784 744.9721912282208 44.0745858724573 728.8201012788602 23.2830658312591 700.8116899836925C-10.5675907647412 655.0187966698138 -0.2577461162132 598.4005664749807 8.9351986953909 568.7597631104627C9.4506909278173 567.2132864131836 9.8802677881727 565.6668097159043 10.4816753926701 564.2062483906961C96.7407089520213 330.0009441249679 391.1726890395675 0.0859153720711 775.4721483134496 0.0859153720711C1085.626641490001 0.0859153720711 1312.7868852459017 75.3477813063257 1481.1810145051927 235.5799502188653C1649.5751437644838 75.3477813063256 1876.8213028924556 0.0859153720711 2186.889880696936 0.0859153720711C2571.1893399708183 0.0859153720711 2865.5354046862935 330.0009441249679 2951.8803536177156 564.206248390696C2952.481761222213 565.7527250879753 2952.9113380825684 567.2132864131834 2953.4268303149947 568.7597631104626C2962.70569049867 598.3146511029096 2973.015535147198 654.9328812977426 2939.1648785511975 700.7257746116213zM2186.975796069007 179.5631276285298C1885.9283323319887 179.5631276285298 1689.6117071496012 254.9968243069265 1550.600635138615 424.2501072869282A89.65269075615826 89.65269075615826 0 0 1 1411.933224615913 424.2501072869282C1272.9221526049269 254.9968243069265 1076.6055274225391 179.5631276285298 775.5580636855209 179.5631276285298C533.2767144451124 179.5631276285298 348.0431722598923 351.9093640030899 248.7250021457389 497.1063428031929C276.5615826967646 492.5528280834263 309.4671701999832 490.834520642005 352.4248562355166 490.834520642005C498.8246502446145 490.834520642005 619.3639172603213 574.6020084112952 735.951077160759 655.6202042743113C858.6382284782426 740.8482533688095 974.5380654021116 821.4368723714703 1123.0857437129862 821.4368723714703C1189.3264955797788 821.4368723714703 1294.91648785512 797.7242296798559 1421.6416616599436 684.9173461505451C1455.6641490000861 654.5892198094584 1507.0415414985841 654.5892198094584 1541.0640288387267 684.9173461505451C1667.7892026435502 797.810145051927 1773.3791949188912 821.4368723714704 1839.619946785684 821.4368723714704C1988.1676250965584 821.4368723714704 2104.0674620204277 740.9341687408808 2226.7546133379115 655.6202042743114C2343.341773238349 574.6020084112953 2463.881040254056 490.8345206420051 2610.280834263154 490.8345206420051C2653.2385202986875 490.8345206420051 2686.1441078019056 492.5528280834264 2713.9806883529313 497.1063428031929C2614.576602866707 351.90936400309 2429.257145309416 179.5631276285299 2186.975796069007 179.5631276285299z" />
    <glyph glyph-name="list"
      unicode="&#xE00C;"
      horiz-adv-x="997.8956864956301" d="M331.4560191711305 1001C339.922328728503 977.7176487172258 348.3886382858754 954.2941922751622 356.8549478432479 931.011840992388C357.419368480406 929.459684240203 358.5482097547223 928.1897378065972 357.8426839582746 929.3185790809134C397.9165491965041 935.1038906117845 436.4382576825486 942.1591485762616 475.3832816464617 945.8278827177896C536.4818156188328 951.6131942486608 595.7459825204398 940.8892021426558 653.1757823512828 920.0056385678038C726.4093600225542 893.4778686213701 788.6367352692416 850.1585847194813 839.7168029320552 791.4588384550325C867.3734141528051 759.5690724555963 890.5146602762898 724.2927826332111 906.7417535945868 684.9244431914294C911.8215393290104 672.6482943332394 916.9013250634338 667.7096137581054 930.4474203552298 674.7648717225825C944.8401466027628 682.3845503242177 960.785029602481 686.899915421483 975.6010713278828 693.6729630673809C989.7115872568368 700.1638003946998 991.4048491683114 690.0042289258529 995.0735833098393 680.9734987313223C999.165632929236 671.0961375810544 999.8711587256836 664.181984775867 987.0305892303356 660.6543557936284C970.2390752748802 655.9978855370737 954.011981956583 649.3659430504651 937.2204680011278 644.9916831124895C926.6375810544122 642.1695799266987 925.2265294615167 636.6664787144066 928.0486326473074 627.635748519876C943.4290950098676 579.5188892021426 949.2144065407387 530.1320834508035 947.0978291513954 479.7575415844376C943.287989850578 388.462503524105 913.2325909219056 306.4804059768819 860.3181561883281 232.4001973498731C831.9560191711305 192.7496475895123 797.103044826614 159.5899351564704 758.0169157034112 131.5100084578518C731.7713560755567 112.6019171130533 701.574851987595 99.3380321398365 671.801663377502 82.8287285029603C680.126867775585 60.534113335213 689.0164928108259 36.4051310967014 698.3294333239356 11.0062024245842L667.9918240766845 -0.1411051592896C660.5132506343388 20.1780377784042 652.3291513955455 40.3560755568086 645.6972089089371 60.9574288130814C642.3106850859881 71.540315759797 637.6542148294333 73.3746828305609 627.0713278827178 70.1292641669016C501.7699464336058 31.4664505215676 382.8182971525233 48.3990696363123 269.9341697208909 112.8841274316324C208.4123202706512 148.019312094728 160.295460952918 197.4061178460672 120.7860163518466 255.4003383140684C108.7920778122357 273.0384832252609 99.479137299126 292.652100366507 91.0128277417536 312.2657175077532C84.5219904144347 327.2228643924444 76.6201014942205 327.9283901888921 63.7795319988723 321.5786580208627C47.1291232027065 313.3945587820695 30.0553989286721 306.3393008175924 11.4295179024528 298.0140964195095C8.0429940795038 304.928249224697 5.220890893713 311.4190865520159 1.9754722300536 317.7688187200451C-2.8221031857908 327.2228643924443 0.5644206371582 331.8793346489992 10.1595714688469 335.1247533126586C30.3376092472512 342.0389061178461 50.2334367070764 349.7996898787707 70.6936848040598 357.2782633211164C66.1783197067945 379.4317733295742 61.6629546095292 400.8797575415845 57.5709049901325 422.3277417535945C44.5892303354948 489.0704820975472 48.9634902734705 554.9665914857626 67.1660558218213 620.1571750775302C85.2275162108824 684.6422328728502 116.4117564138709 742.7775585001409 160.1543557936284 793.2932055257963C193.7373837045391 832.09712433042 233.1057231463209 864.4102058077248 278.4004792782634 889.1036086833943C291.2410487736115 896.1588666478714 303.9405131096701 903.4963349309274 317.486608401466 908.85833098393C328.7750211446293 913.3736960811952 328.3517056667606 918.8767972934874 324.259656047364 928.3308429658866C315.5111361714125 948.3677755850014 307.7503524104878 968.9691288412743 299.5662531716944 989.288271778968C310.2902452776995 993.0981110797856 320.8731322244151 997.0490555398928 331.4560191711306 1000.9999999999998zM658.1144629264166 114.2951790245277C776.7839018889201 168.6206653510009 857.4960530025375 255.1181279954892 895.5944460107132 377.7385114180998C921.5577953199888 461.1316605582182 922.2633211164364 545.6536509726529 890.2324499577107 633.2799548914575C849.8763744009021 618.3228080067663 812.4835071891739 604.2122920778122 774.949534818156 590.6661967860164C741.6487172258246 578.5311530871159 708.3478996334931 565.8316887510572 674.3415562447137 555.8132224414999C660.7954609529178 551.8622779813927 657.5500422892585 548.3346489991543 660.7954609529178 534.2241330702002C672.6482943332393 482.1563292923598 662.0654073865237 433.8983648153369 626.7891175641386 393.6833944178179C609.4331829715251 373.9286721172822 586.8563574851986 358.6893149140119 564.4206371581616 339.3579080913449C584.0342542994077 291.6643642514801 604.9178178742598 240.8665069072455 625.9424866084013 190.068649563011C636.6664787144063 192.7496475895123 647.531575979701 199.6638003946997 647.9548914575696 181.6023400056386C632.7155342542992 177.3691852269524 632.9977445728783 167.9151395545532 638.924161263039 155.9212010149422C645.5561037496474 142.9395263603044 651.200310121229 129.5345362277982 658.1144629264165 114.2951790245277zM445.8923033549479 658.2555680857063C460.7083450803495 661.3598815900762 472.2789681420919 665.5930363687623 483.8495912038342 665.8752466873414C554.9665914857626 667.4274034395264 611.2675500422893 640.8996334930928 645.5561037496476 576.2734705384833C651.4825204398084 564.98505779532 656.9856216521003 563.7151113617141 667.8507189173949 568.2304764589794C715.2620524386805 587.8440936002255 762.8144911192558 607.0343952636031 810.3669297998308 625.9424866084014C833.7903862418945 635.255427121511 857.637158161827 643.580631519594 881.7661404003384 652.470256554835C879.5084578517058 659.8077248378911 878.6618268959685 664.1819847758668 876.9685649844939 668.132929235974C855.5205807724838 720.341838173104 822.9252889766 765.2132788271779 781.1581618268959 802.323935720327C672.7893994925289 898.6987595150831 546.7824922469692 932.2817874259938 404.5484916831125 902.6497039751902C365.6034677191993 894.4656047363969 365.7445728784889 893.7600789399492 379.4317733295743 856.7905272060896C380.4195094446011 854.1095291795883 381.971666196786 851.5696363123766 382.2538765153651 848.8886382858753C384.0882435861291 836.0480687905272 390.7201860727375 830.262757259656 409.2049619396673 836.8946997462645C405.3951226388497 827.2995489145757 403.4196504087961 822.3608683394418 401.5852833380322 817.4221877643079C400.0331265858472 813.4712433042007 396.6466027628982 808.6736678883564 397.7754440372146 805.4282492246969C413.4381167183535 756.888074429095 429.5241048773612 708.3478996334931 445.8923033549478 658.2555680857063zM598.8502960248096 182.5900761206654C600.1202424584155 182.8722864392445 601.5312940513109 183.013391598534 602.8012404849168 183.295601917113C598.0036650690724 198.8171694389625 593.3471948125176 214.4798421201015 588.2674090780941 229.8603044826614C577.8256272906681 261.4678601635184 565.6905835917677 292.5109952072172 556.8009585565267 324.541866365943C553.1322244149986 337.9468564984494 549.4634902734705 339.6401184099239 536.6229207781224 336.818015224133C477.782069354384 323.9774457287848 425.1498449393855 337.5235410205807 382.1127713560756 379.9961939667324C366.8734141528052 394.9533408514237 355.585001409642 413.8614321962221 341.1922751621089 432.7695235410206C271.4863264730759 404.5484916831125 199.5226952354103 375.1986185508881 127.4179588384551 346.4131660558218C117.3994925288977 342.4622215957147 116.1295460952918 336.9591203834226 120.3627008739781 328.2106005074711C145.6205243868058 275.0139554553143 178.6391316605583 227.3204116154498 223.5105723146321 188.9398082886947C327.646179870313 99.9024527769947 447.4444601071328 68.0126867775584 582.199887228644 92.14166901607C598.0036650690724 94.9637722018608 613.3841274316325 99.4791372991261 630.5989568649563 103.7122920778123C622.4148576261631 125.7246969269807 615.359599661686 144.9149985903581 609.2920778122358 161.4243022272343C601.6723992106006 163.9641950944461 596.1692979983085 165.7985621652101 590.6661967860165 167.7740343952637C593.3471948125177 172.571609811108 596.1692979983085 177.6513955455315 598.8502960248097 182.5900761206654zM434.7449957710741 655.0101494220469C414.0025373555117 705.3846912884128 393.4011840992388 755.0537073583309 374.3519875951508 801.1950944460107C363.7691006484353 804.0171976318015 356.9960530025374 805.8515647025656 350.0819001973499 807.5448266140401C354.032844657457 813.4712433042007 357.8426839582746 819.2565548350719 363.2046800112771 827.4406540738653C358.9715252325909 839.0112771356075 352.6217930645616 852.980687905272 348.6708486044544 867.5145193120948C344.7199041443473 882.0483507189174 336.535804905554 882.0483507189174 326.2351282774175 875.9808288694671C302.5294615167747 862.0114180998027 278.4004792782633 848.6064279672963 255.9647589512264 833.0848604454468C182.1667606427967 781.8636876233436 133.4854806879053 711.8755286157316 105.4055539892867 627.2124330420073C80.0066253171694 550.3101212292078 77.7489427685368 472.8433887792501 97.7858753876515 394.2478150549761C104.8411333521285 366.7323089935157 105.2644488299971 365.4623625599098 132.3566394135889 375.0575133915985C175.3937129968987 390.1557654355794 218.7129968987877 404.8307020016915 261.608965322808 420.0700592049619C287.4312094727939 429.2418945587821 312.9712433042008 438.9781505497604 338.3701719763181 448.4321962221595C317.0632929235974 541.1382858753876 349.7996898787708 609.2920778122357 434.7449957710742 655.0101494220468zM557.5064843529743 361.9347335776713C633.9854806879052 394.3889202142656 663.4764589794191 483.4262757259656 638.9241612630392 545.6536509726529C609.7153932901043 534.7885537073583 580.2244149985904 523.9234564420638 550.8745418663659 513.058359176769C550.1690160699183 515.0338314068226 549.322385114181 517.0093036368762 548.6168593177333 518.9847758669298C577.6845221313787 531.4020298844094 606.7521849450239 543.9603890611786 635.6787425993798 556.377643078658C609.8564984493939 627.635748519876 516.8681984775867 667.0040879616578 454.3586129123203 639.629687059487C463.5304482661404 609.5742881308148 472.7022836199606 579.3777840428531 481.8741189737808 549.1812799548916C479.8986467437272 548.6168593177333 478.0642796729631 548.0524386805753 476.0888074429096 547.3469128841275C466.4936566112209 573.1691570341134 456.7574006202426 598.9914011840992 447.4444601071329 624.9547504933747C444.057936284184 634.5499013250635 438.9781505497605 638.2186354665915 429.9474203552299 632.0100084578517C418.9412179306458 624.3903298562166 406.9472793910349 617.758387369608 397.3521285593461 608.586552015788C358.2659994361434 570.6292641669016 342.3211164364253 525.1934028756696 352.0573724274036 470.444601071328C355.0205807724839 454.2175077530309 359.2537355511702 452.3831406822668 373.5053566394137 457.6040315759799C397.7754440372147 466.6347617705104 422.7510572314634 473.6900197349875 447.5855652664225 481.7330138144913C448.0088807442911 480.4630673808854 448.4321962221597 479.1931209472796 448.9966168593179 477.7820693543841C419.9289540456726 465.3648153369045 390.7201860727377 453.0886664787146 359.6770510290388 439.9658866647873C369.4133070200171 425.2909500986752 375.9041443473359 412.732590921906 384.9348745418665 402.2908091344799C418.8001127713562 363.910205807725 461.2727657175079 346.8364815336905 512.6350436989006 350.6463208345082C547.2058077248381 353.3273188610094 548.757964477023 354.3150549760362 536.6229207781225 387.1925570904993C529.2854524950665 407.229489709614 521.8068790527209 427.1253171694391 514.4694107696647 447.162249788554C516.0215675218496 447.7266704257121 517.5737242740346 448.4321962221599 519.1258810262195 448.996616859318C532.1075556808572 419.9289540456727 544.8070200169159 390.8612912320274 557.5064843529746 361.9347335776715zM749.832816464618 251.5904990132507C733.8879334648999 238.3266140400339 718.789681420919 225.7682548632648 703.4092190583592 212.9276853679165C693.2496475895123 221.5351000845785 692.403016633775 227.3204116154498 701.8570623061743 234.0934592613476C710.3233718635468 240.3020862700874 719.3541020580773 246.5107132788272 725.8449393853962 254.5537073583311C734.5934592613477 265.277699464336 740.943191429377 263.5844375528616 749.8328164646181 251.5904990132507zM775.0906399774457 309.7258246405413L802.4650408796165 358.1248942768537C816.4344516492811 356.8549478432477 818.9743445164928 350.646320834508 812.4835071891739 339.6401184099239C806.8393008175923 330.0449675782351 800.6306738088525 320.5909219058358 795.6919932337187 310.5724555962785C789.7655765435579 298.437411897378 783.5569495348182 299.8484634902734 775.0906399774457 309.7258246405412zM840.2812235692134 409.4871722582464C832.6615449675782 411.8859599661686 828.146179870313 413.297011559064 822.9252889766 414.9902734705385C825.7473921623908 431.9228925852834 828.0050747110234 447.8677755850014 831.3915985339723 463.5304482661404C832.2382294897096 467.1991824076683 836.8946997462645 470.1623907527487 839.7168029320553 473.4078094164082C842.256695799267 469.5979701155906 847.195376374401 465.5059204961939 846.9131660558219 461.837186354666C845.7843247815056 445.1867775585002 842.9622215957147 428.8185790809136 840.2812235692135 409.4871722582464zM849.8763744009021 530.9787144065407C842.3978009585564 531.5431350436988 837.1769100648435 531.9664505215675 831.6738088525514 532.3897659994361C828.5694953481816 550.5923315477869 825.6062870031012 568.2304764589794 822.5019734987313 586.5741471666197C826.4529179588385 587.985198759515 830.9682830561037 589.6784606709896 837.6002255427121 592.2183535382012C841.6922751621088 572.0403157597971 845.5021144629264 552.70890893713 849.8763744009021 530.9787144065407zM582.3409923879335 822.6430786580208C583.8931491401185 834.4959120383422 587.420778122357 840.8456442063716 600.8257682548633 834.6370171976318C610.8442345644207 829.9805469410769 621.7093318297153 826.594023118128 632.4333239357204 823.7719199323371C647.6726811389908 819.8209754722301 643.1573160417255 812.3424020298844 637.2308993515649 803.0294615167747C618.6050183253456 809.6614040033832 600.6846630955738 816.1522413307019 582.3409923879336 822.6430786580208zM689.016492810826 774.102903862419C693.2496475895122 787.3667888356358 700.3049055539892 788.6367352692416 710.6055821821258 779.0415844375528C719.4952072173668 770.71638003947 729.5136735269242 763.3789117564139 738.1210882435862 754.7714970397519C740.5198759515084 752.2316041725402 739.6732449957711 746.5873978009586 740.2376656329293 742.2131378629829C735.8634056949535 742.2131378629829 730.0780941640824 740.2376656329293 727.3970961375811 742.3542430222724C714.4154214829433 752.0904990132507 702.4214829433324 762.8144911192558 689.0164928108261 774.102903862419zM468.1869185226952 831.6738088525515C463.9537637440091 842.8211164364252 467.0580772483789 848.4653228080067 477.3587538765153 848.8886382858755C490.1993233718635 849.4530589230335 503.0398928672117 850.1585847194813 515.8804623625598 849.311953763744C519.5491965040878 849.029743445165 522.6535100084577 842.9622215957147 526.0400338314067 839.5756977727657C522.5124048491682 836.7535945869749 519.1258810262192 831.814914011841 515.4571468846912 831.6738088525515C500.0766845221312 830.8271778968142 484.4140118409923 831.532703693262 468.1869185226951 831.6738088525515zM815.5878206935438 650.3536791654919C809.379193684804 647.5315759797011 805.5693543839864 645.8383140682266 800.9128841274317 643.7217366788836C798.655201578799 647.6726811389907 796.9619396673245 651.0592049619397 794.9864674372709 654.3046236255991C788.3545249506625 664.6053002537355 781.0170566676063 674.4826614040034 775.5139554553142 685.347758669298C773.8206935438398 688.734282492247 777.0661122074991 694.5195940231181 778.0538483225259 699.176064279673C782.1458979419226 698.1883281646462 788.495630109952 698.4705384832253 790.047786862137 695.789540456724C798.7963067380884 681.8201296870595 806.4159853397235 666.8629828023682 815.5878206935438 650.3536791654919zM361.5114180998027 194.0195940231182C379.2906681702848 187.6698618550888 396.2232872850297 181.7434451649282 413.014801240485 175.8170284747674C415.2724837891176 161.847617705103 410.4749083732732 157.4733577671273 397.634338877925 162.5531435015507C386.7692416126304 166.7862982802369 376.0452495066253 171.3016633775021 364.8979419227516 174.4059768818721C350.0819001973499 178.2158161826898 351.7751621088244 184.7066535100086 361.5114180998027 194.0195940231183zM252.8604454468565 247.498449393854C256.8113899069637 252.437129968988 259.774598252044 256.2469692698055 263.7255427121512 261.1856498449394C277.5538483225261 249.7561319424866 291.5232590921906 239.3143501550607 304.0816182689597 227.1793064561602C306.9037214547505 224.3572032703693 304.6460389061179 216.1731040315759 304.6460389061179 210.5288976599943C303.0938821539329 209.9644770228362 301.541725401748 209.5411615449675 299.989568649563 208.9767409078094C284.7502114462926 221.393994925289 269.3697490837328 233.9523541020581 252.8604454468565 247.4984493938539zM181.8845503242177 346.5542712151114C191.4797011559064 354.5972652946151 197.6883281646462 356.2905272060896 203.0503242176487 346.5542712151114C209.8233718635467 334.4192275162109 217.3019453058923 322.5663941358894 223.6516774739216 310.14914011841C224.9216239075275 307.7503524104877 223.3694671553426 300.8361996053003 222.2406258810262 300.5539892867212C218.1485762616296 299.7073583309839 211.2344234564421 299.2840428531153 209.6822667042571 301.6828305610375C199.8049055539893 316.2166619678602 191.0563856780378 331.59712433042 181.8845503242177 346.5542712151114zM532.1075556808571 164.8108260501833C533.377502114463 155.2156752184946 533.377502114463 148.4426275725966 521.1013532562729 148.7248378911757C507.6963631237665 149.0070482097548 494.2913729912602 147.1726811389907 480.8863828587538 148.019312094728C477.3587538765153 148.3015224133071 474.2544403721454 154.9334648999155 471.009021708486 158.6021990414436C473.9722300535664 161.1420919086553 476.9354383986467 165.9396673244997 479.8986467437271 166.0807724837893C497.113476177051 166.3629828023684 514.3283056103749 165.3752466873416 532.1075556808571 164.8108260501833zM158.3199887228644 585.4453058923034C173.7004510854243 585.8686213701719 176.6636594305047 580.3655201578799 173.5593459261348 568.653791936848C170.5961375810544 558.0709049901325 170.5961375810544 546.6413870876797 167.350718917395 536.0585001409642C165.9396673244996 531.5431350436988 159.7310403157598 528.438821539329 155.6389906963632 524.6289822385113C153.8046236255991 528.721031857908 150.2769946433606 533.0952917958838 150.7003101212292 536.9051310967013C152.5346771919933 553.4144347335775 155.7800958556527 569.6415280518747 158.3199887228644 585.4453058923033zM260.6212292077812 733.6057231463208C249.7561319424866 740.943191429377 250.0383422610657 747.4340287566959 258.5046518184381 754.4892867211729C267.8175923315478 762.2500704820976 276.5661122074993 770.9985903580491 286.5845785170567 777.9127431632365C289.6888920214265 780.0293205525796 295.8975190301664 777.6305328446575 300.5539892867211 777.3483225260784C299.8484634902735 772.9740625881027 300.8361996053002 766.7654355793629 298.2963067380885 764.3666478714406C286.4434733577671 753.6426557654356 273.7440090217085 744.0475049337468 260.6212292077812 733.6057231463208zM195.289540456724 637.9364251480124C181.7434451649281 641.1818438116718 177.5102903862419 646.2616295460953 187.1054412179306 658.5377784042853C194.4429095009867 667.9918240766846 198.9582745982521 679.7035522977164 205.73132224415 689.8631237665633C207.565689314914 692.5441217930645 213.0687905272061 692.5441217930645 217.0197349873132 693.8140682266704C218.1485762616296 689.1575979701156 221.5351000845786 683.2311812799549 219.841838173104 679.844657457006C212.504369890048 665.7341415280519 203.7558500140964 652.188046236256 195.289540456724 637.9364251480124zM157.0500422892585 414.2847476740908C154.6512545813364 430.511840992388 152.1113617141246 443.3524104877362 151.2647307583874 456.1929799830843C150.9825204398083 459.4383986467437 156.2034113335213 462.9660276289823 158.8844093600226 466.3525514519312C161.847617705103 463.8126585847194 166.6451931209473 461.837186354666 167.4918240766845 458.7328728502961C170.737242740344 446.8800394699746 173.5593459261348 434.7449957710741 174.8292923597406 422.4688469128842C175.3937129968988 417.6712714970397 171.3016633775021 412.4503806033267 169.4672963067381 407.5117000281928C164.9519312094728 409.910487736115 160.4365661122075 412.4503806033267 157.0500422892585 414.2847476740907zM525.1934028756696 508.4018889202143C530.6965040879617 493.162531716944 523.6412461234846 476.6532280800677 509.5307301945306 471.1501268677756C495.1380039469974 465.6470256554835 476.512122920778 474.395545531435 471.2912320270651 489.0704820975473C466.4936566112207 502.7576825486327 474.8188610093036 521.9479842120102 487.8005356639414 527.0277699464336C501.9110515928954 532.6719763180153 519.6903016633775 523.7823512827742 525.1934028756696 508.4018889202143z" />
    <glyph glyph-name="name"
      unicode="&#xE00D;"
      horiz-adv-x="826.9130434782609" d="M816.8595217391303 112.3296086956522A27.418695652173916 27.418695652173916 0 0 0 806.3707826086955 99.3166086956522C800.3647826086955 95.3996521739131 655.7420434782608 0.2611304347827 413.7611739130434 0.2611304347827C171.780304347826 0.2611304347827 27.1575652173913 95.2255652173913 21.1080434782608 99.3166086956522A26.11304347826087 26.11304347826087 0 0 0 10.6628260869564 112.3296086956522C0 140.2705652173913 0.1740869565217 195.5431739130435 0.3916956521739 206.3365652173914V206.8588260869566A39.86591304347826 39.86591304347826 0 0 1 0.6093043478261 212.0379130434783C1.7843913043478 252.9918695652174 4.4392173913043 348.9573043478262 91.7003043478261 379.8142173913044C92.3096086956522 379.9883043478261 92.9189130434783 380.2494347826088 93.7458260869565 380.2929565217392C184.8368260869565 404.404 259.8683043478261 458.1533478260869 260.6952173913044 458.8496956521739A26.67882608695652 26.67882608695652 0 0 0 298.5156086956522 451.8862173913043A28.289130434782614 28.289130434782614 0 0 0 291.8567826086957 413.108347826087C288.4185652173914 410.7581739130435 208.3820869565217 353.1353913043478 108.1950434782609 326.5436086956521C61.3221304347826 309.2219565217391 56.0995217391305 257.6486956521739 54.7068260869565 210.5146521739131C54.7068260869565 208.5126521739131 54.4892173913044 206.8588260869566 54.4892173913044 205.2485217391305C54.0975217391305 186.7082608695654 55.4902173913044 157.7663043478261 58.7108260869566 141.2280434782609C91.5262173913044 122.1220000000001 220.0459130434783 56.1430434782609 413.5435652173914 56.1430434782609C607.8681304347826 56.1430434782609 735.5609130434782 121.8608695652174 768.1586956521738 141.0539565217391C771.3793043478261 157.5922173913043 772.5979130434782 186.3600869565218 772.380304347826 204.9873913043479C772.2062173913042 206.7282608695653 772.2062173913042 208.4256086956523 772.2062173913042 210.2100000000002C770.7699999999999 257.4746086956523 765.5473913043478 309.0478695652175 718.6744782608695 326.413043478261C618.530956521739 352.8742608695653 538.450956521739 410.3664782608697 535.0562608695651 412.8472173913046A28.41969565217391 28.41969565217391 0 0 0 528.3974347826086 451.7121304347828A26.635304347826086 26.635304347826086 0 0 0 566.2178260869564 458.5885652173914C567.0012173913042 457.9357391304349 642.4679130434781 404.1428695652176 733.1672173913041 380.2494347826088C733.7765217391302 379.9883043478262 734.5599130434781 379.8142173913045 735.1692173913042 379.6401304347827C822.4738260869564 348.9573043478263 825.0851304347824 252.9918695652175 826.3037391304347 211.9943913043479C826.3037391304347 210.0359130434783 826.5213478260868 208.4256086956523 826.5213478260868 206.7282608695654V206.0754347826088C826.6954347826086 195.282043478261 826.9130434782606 139.922391304348 816.8595217391302 112.3296086956524zM416.3724782608695 461.8091739130434H409.9312608695652C351.0028260869564 462.9842608695651 303.303 484.3099130434782 268.3115217391304 525.133304347826C190.8863478260869 615.0927391304348 203.7687826086956 769.3337826086956 205.1614782608695 784.0441304347826C210.21 895.2856956521739 261.6962173913044 948.1646086956522 303.9123043478261 972.8849565217392C345.9543043478261 997.4312173913044 389.8242173913044 1001.2611304347826 412.1508695652174 1001.2611304347826H415.5455652173913C456.1948695652173 1000.390695652174 492.6225652173912 990.5112608695651 523.7841304347826 971.971C565.6085217391304 947.2941739130434 616.311347826087 894.5458260869566 621.3163478260869 784.0441304347826C622.7525652173913 769.3337826086956 635.635 615.0927391304349 558.166304347826 525.1333043478262C522.9572173913043 484.3099130434783 475.3009130434782 462.9842608695653 416.3724782608696 461.8091739130435zM567.4364347826086 778.8650434782609C567.2188260869564 779.3002608695651 567.2188260869564 779.9966086956522 567.2188260869564 780.5188695652173C560.9952173913042 921.1811304347826 468.6420869565216 943.943 414.3704782608695 945.0745652173912H411.9332608695652C368.1068695652174 945.0745652173912 265.7002173913044 929.1020869565218 259.0849130434783 780.5188695652173C259.0849130434783 780.083652173913 258.8673043478261 779.5613913043478 258.8673043478261 778.8650434782609C258.6496956521739 777.7334782608696 244.9838695652174 636.1137391304349 308.7432173913043 562.3008695652173C333.8987826086957 532.836652173913 367.8892608695652 518.1698260869565 412.1508695652173 517.8651739130433H414.1528695652173C458.5885652173912 518.1698260869564 492.4049565217391 532.8366521739129 517.734608695652 562.3008695652173C581.7115652173912 636.3748695652173 567.6105217391304 777.385304347826 567.4364347826086 778.8650434782608z" />
    <glyph glyph-name="protection"
      unicode="&#xE00E;"
      horiz-adv-x="950.9499999999999" d="M488.0876 2.2022000000001A41.49144999999999 41.49144999999999 0 0 0 462.81235 2.2022000000001C0 146.9968500000001 7.25725 490.43995 12.56255 740.9902500000001C13.1131 767.91715 13.66365 793.4927 13.66365 818.0672500000001C13.66365 837.3365 30.98095 852.852 52.3523 852.852C217.66745 852.852 343.59325 895.7949 448.49805 988.13715A41.8418 41.8418 0 0 0 502.4019 988.13715C607.3567499999999 895.7949 733.2825499999999 852.852 898.6477499999999 852.852C919.9690499999998 852.852 937.2863499999999 837.3365 937.2863499999999 818.0672500000001C937.2863499999999 793.4927 937.8368999999998 767.9672 938.3874499999998 740.9902500000001C943.6927499999998 490.4900000000001 950.9499999999998 146.9968499999999 488.0875999999997 2.2022000000001zM861.0602 739.68895C860.7599 754.9041500000001 860.4595999999999 769.5688 860.2594 783.7329500000001C705.35465 789.6889 581.4809 832.0312 475.4750000000001 915.5146C369.4691000000002 832.0312 245.5953500000002 789.6889000000001 90.7406500000002 783.7329500000001L89.8898000000002 739.68895C84.5344500000002 487.7372500000001 78.5284500000002 202.5023 475.4750000000001 72.2221499999999C872.4215500000001 202.5022999999999 866.4155500000002 487.7372499999999 861.0602000000001 739.68895zM449.3489 377.7273500000001A40.490449999999996 40.490449999999996 0 0 0 421.9715499999999 367.6673000000001A40.440400000000004 40.440400000000004 0 0 0 394.64425 377.7273500000001L287.6874 474.4239500000001A32.5325 32.5325 0 0 0 287.6874 523.7732500000002A41.54149999999999 41.54149999999999 0 0 0 342.342 523.7732500000002L421.9715499999999 451.8514000000001L608.608 620.5699500000002A42.09204999999999 42.09204999999999 0 0 0 663.31265 620.5699500000002A32.8328 32.8328 0 0 0 663.31265 571.0204500000002L449.3489 377.7273500000001z" />
    <glyph glyph-name="ribbon"
      unicode="&#xE00F;"
      horiz-adv-x="745.4255319148936" d="M723.8081914893617 648.3072340425532C729.1113617021276 639.8093829787234 729.1113617021276 629.0752553191489 723.8081914893617 620.6412978723405L701.6584042553192 585.7127872340426C698.0164680851063 579.9836595744682 696.7598936170214 573.1044468085107 698.2081489361702 566.4595106382978L706.9615744680851 526.1000425531915C709.0274680851064 516.3243191489362 705.4068297872341 506.2291276595745 697.4840212765957 500.095340425532L664.9408723404256 474.8147659574469C659.6164042553193 470.6403829787234 656.0809574468086 464.613085106383 655.1651489361702 457.8616595744681L649.4360212765959 416.9910425531915A26.068595744680852 26.068595744680852 0 0 0 631.6522978723405 395.7570638297873L601.8991702127661 386.1943191489362L592.3151276595746 383.0848297872341A25.855617021276597 25.855617021276597 0 0 1 577.3427234042555 370.4977872340426L558.1107446808512 333.9719361702128C553.6381914893618 325.4527872340426 544.6717872340428 320.1283191489362 535.1090425531917 320.1283191489362H534.1719361702129L492.9818510638299 321.7043617021277H492.0447446808512C485.5914893617022 321.7043617021277 479.3512127659575 319.2977021276596 474.5804893617022 314.9529361702129L443.9967446808512 287.2657021276598A25.834319148936174 25.834319148936174 0 0 0 416.7354680851065 282.4949787234046L378.5696808510639 298.085021276596A24.769425531914894 24.769425531914894 0 0 1 368.7939574468086 300.0657234042557A26.196382978723403 26.196382978723403 0 0 1 359.0182340425532 298.085021276596L320.8311489361703 282.4949787234046A24.386063829787236 24.386063829787236 0 0 0 311.055425531915 280.5142765957449C304.7086595744682 280.5142765957449 298.4683829787235 282.8996382978726 293.5698723404256 287.2657021276598L262.9861276595746 314.9529361702129A25.962106382978728 25.962106382978728 0 0 1 245.5218723404256 321.7043617021278H244.5847659574469L203.3946808510639 320.1283191489363H202.4575744680852C192.8948297872341 320.1283191489363 183.9497234042554 325.4527872340426 179.4558723404256 333.9719361702128L160.2238936170213 370.4977872340426A26.153787234042554 26.153787234042554 0 0 1 145.2514893617022 383.0848297872341L135.6674468085107 386.1943191489363L105.9143191489362 395.7570638297874A26.238978723404255 26.238978723404255 0 0 0 88.1305957446809 416.9910425531916L82.4227659574469 457.8616595744681C81.4856595744682 464.6130851063831 77.9502127659575 470.6403829787236 72.6257446808511 474.8147659574469L40.0825957446809 500.095340425532A26.04729787234043 26.04729787234043 0 0 0 30.6050425531915 526.1000425531915L39.3584680851064 566.4595106382981A26.196382978723403 26.196382978723403 0 0 1 35.9082127659575 585.7127872340427L13.9714042553192 620.6412978723406A26.04729787234043 26.04729787234043 0 0 0 13.9714042553192 648.3072340425533L35.9082127659575 683.278340425532C39.5501489361703 689.0074680851064 40.8067234042554 695.8866808510639 39.3584680851064 702.5316170212767L30.6050425531915 742.8697872340426C28.5391489361703 752.6668085106385 32.181085106383 762.7407021276597 40.0825957446809 768.8957872340427L73.0517021276596 794.1550638297872A26.196382978723403 26.196382978723403 0 0 1 82.8274255319149 811.1294680851064L88.5565531914894 852.000085106383C89.8983191489362 861.8822978723405 96.8627234042553 870.1884680851065 106.3402765957447 873.2340638297873L145.5496595744681 885.9062978723405C152.002914893617 887.9934893617021 157.4125744680851 892.4873404255319 160.5433617021277 898.493340425532L179.7753404255319 935.0191914893616C184.2478936170213 943.538340425532 193.193 948.841510638298 202.7770425531915 948.841510638298H203.6928510638298L244.9042340425532 947.2867659574468H245.8200425531915C252.2732978723405 947.2867659574468 258.5135744680851 949.6721276595744 263.3055957446809 954.0381914893616L293.8893404255319 981.7254255319148A25.770425531914896 25.770425531914896 0 0 0 321.1506170212766 986.4961489361702L359.3164042553192 970.8848085106384C362.4471914893616 969.5430425531916 365.7696595744681 968.9254042553192 369.0921276595745 968.9254042553192C372.4358936170213 968.9254042553192 375.7583617021276 969.6495319148936 378.8678510638298 970.8848085106384L417.0549361702127 986.4961489361702C420.1644255319149 987.8592127659576 423.4868936170212 988.4768510638298 426.8306595744681 988.4768510638298C433.1774255319148 988.4768510638298 439.4177021276596 986.0701914893618 444.2949148936169 981.7254255319148L474.878659574468 954.0381914893616C479.6706808510638 949.6721276595744 485.9109574468084 947.2867659574468 492.3642127659574 947.2867659574468H493.3013191489362L534.4914042553191 948.841510638298H535.4285106382979C544.991255319149 948.841510638298 553.9363617021277 943.538340425532 558.4089148936171 935.0191914893616L577.6621914893617 898.4933404255319C580.7716808510638 892.5512340425532 586.1813404255319 887.9934893617021 592.6345957446808 885.9062978723405L631.8439787234042 873.2340638297873C641.3215319148936 870.1032765957447 648.2859361702127 861.8822978723404 649.649 852.000085106383L655.356829787234 811.1294680851064C656.2939361702128 804.3780425531916 659.8293829787234 798.3294468085107 665.1325531914894 794.1550638297872L697.697 768.8957872340426C705.5985106382979 762.7407021276596 709.2404468085107 752.6668085106382 707.1745531914894 742.8697872340426L698.4211276595744 702.5316170212766A26.196382978723403 26.196382978723403 0 0 1 701.850085106383 683.278340425532L723.8081914893617 648.3072340425532zM620.5135106382978 740.8038936170212A272.1868085106383 272.1868085106383 0 0 1 562.0508510638297 827.5501276595745A270.90893617021277 270.90893617021277 0 0 1 475.3046170212765 886.0127872340425A271.6330638297872 271.6330638297872 0 0 1 368.9856382978723 907.4384468085105A271.9525319148936 271.9525319148936 0 0 1 175.9204255319149 827.5501276595744A271.0367234042553 271.0367234042553 0 0 1 117.4577659574468 740.8038936170212A271.52657446808513 271.52657446808513 0 0 1 96.0321063829787 634.5062127659576A271.54787234042556 271.54787234042556 0 0 1 135.7739361702128 492.4068085106383A274.2101063829788 274.2101063829788 0 0 1 175.9204255319149 441.4410000000001A271.1858085106383 271.1858085106383 0 0 1 262.6879574468085 382.9570425531915A271.420085106383 271.420085106383 0 0 1 368.9856382978723 361.5526808510639A271.61176595744683 271.61176595744683 0 0 1 562.0508510638298 441.4410000000002A269.0347234042553 269.0347234042553 0 0 1 602.1973404255319 492.4068085106384A271.54787234042556 271.54787234042556 0 0 1 641.9391702127659 634.5062127659576C641.9391702127659 671.3089361702129 634.7617872340426 707.1106595744682 620.5135106382979 740.8038936170215zM368.8791489361702 392.6262765957447C257.5764680851064 392.6262765957447 163.7593404255319 467.9568510638297 135.6674468085107 570.420914893617A240.9002340425532 240.9002340425532 0 0 0 127.0418085106383 634.5062127659576C127.0418085106383 768.065170212766 235.3201914893617 876.322255319149 368.8791489361702 876.322255319149C502.4594042553191 876.322255319149 610.7377872340426 768.065170212766 610.7377872340426 634.5062127659576A241.77344680851067 241.77344680851067 0 0 0 368.8791489361702 392.6262765957447zM505.7818723404255 700.550914893617L426.724170212766 710.2201489361703L392.2855106382979 783.9959787234043C382.9357446808511 803.9307872340426 354.5243829787234 803.9307872340426 345.1746170212766 783.9959787234043L310.7359574468085 710.2201489361703L231.6782553191489 700.550914893617C209.6349574468085 697.8247872340426 200.8815319148936 670.371829787234 217.4299787234043 655.3994255319149L223.4572765957447 649.8832765957447L277.7668510638298 600.898170212766L261.111914893617 522.4581063829787C256.4476808510638 500.6064893617021 279.9605319148936 483.4617021276596 299.4054893617021 494.4727021276595L368.8791489361701 533.8098723404255L438.2676170212765 494.4727021276595C457.8190638297871 483.3552127659575 481.2254255319148 500.5212978723404 476.5398936170212 522.4581063829787L459.6932765957446 600.898170212766L514.0028510638297 649.8832765957447L520.0301489361701 655.3994255319149C536.5785957446808 670.371829787234 527.931659574468 697.8247872340426 505.7818723404255 700.5509148936171zM156.6884468085106 321.8960425531915A51.83902127659575 51.83902127659575 0 0 1 202.6705531914894 294.1236170212767H204.5447659574468L245.7348510638298 295.6996595744681L276.3185957446808 268.0124255319151A52.052 52.052 0 0 1 330.8198510638298 258.449680851064L368.9856382978723 274.0610212765959L407.1727234042553 258.449680851064A52.09459574468086 52.09459574468086 0 0 1 461.6739787234042 268.0124255319151L492.2577234042553 295.6996595744681L533.4478085106383 294.1236170212767H535.3220212765957C554.6604893617022 294.1236170212767 572.3590212765957 304.7512553191491 581.3041276595744 321.7895531914894L600.5361063829787 358.3154042553192L602.1121489361702 358.8265531914895V36.6962340425532C602.1121489361702 17.3364680851064 581.7087872340426 4.7494255319149 564.4575106382979 13.5028510638298L380.8485531914893 105.9569148936171A26.430659574468088 26.430659574468088 0 0 1 357.4421914893616 105.9569148936171L173.5350638297872 13.5880425531916A25.962106382978728 25.962106382978728 0 0 0 135.8804255319149 36.781425531915V358.9543404255319L137.4351702127659 358.4218936170213L156.6884468085106 321.8960425531915z" />
    <glyph glyph-name="tel"
      unicode="&#xE010;"
      horiz-adv-x="875.875" d="M748.873125 372.5388333333333C731.1887916666667 395.8955 708.1657916666667 410.2014583333334 682.2649166666666 413.4547083333333C656.6142916666665 416.416 630.6299999999999 408.533125 606.9396666666665 389.9729166666666L532.9073749999999 332.4988333333333A498.7065416666666 498.7065416666666 0 0 1 517.8506666666665 342.9259166666667C510.8019583333331 347.5972500000001 504.1286249999998 352.0183333333333 498.5397083333332 356.6062500000001C441.6078333333332 403.1110416666667 391.7246666666665 460.9187916666666 345.9706249999999 533.4078750000001C323.9486249999998 569.4021666666667 309.8094999999999 599.34875 300.5502499999999 628.8365416666668C319.5692499999999 642.3083333333334 337.4621249999999 656.6142916666668 354.8127916666665 670.294625C361.3609999999999 675.3830416666667 367.9509166666665 680.8051250000001 374.5408333333333 685.8518333333334C423.7566666666666 724.1817916666666 430.7219583333332 780.7800000000001 392.2668749999999 829.6621666666667L342.2585833333333 893.4342083333333C336.58625 900.6914583333333 330.7470833333334 908.0738333333334 325.2832916666667 915.4979166666666A925.67475 925.67475 0 0 1 290.8322083333334 958.9997083333332C273.0227500000001 981.4805 250.124875 995.0774166666666 224.6827916666667 998.122125C199.199 1001.2919583333334 173.2564166666667 993.617625 149.9414583333334 976.3086666666666C149.6912083333334 976.0584166666666 149.6912083333334 976.0584166666666 149.4409583333333 975.9332916666668L69.694625 913.2039583333332A152.5690833333333 152.5690833333333 0 0 1 12.4707916666667 822.1546666666667C0 762.0946666666666 10.9692916666667 703.327625 20.1868333333333 664.538875C42.79275 569.4855833333334 82.9161666666667 479.2704583333333 147.147 379.8377916666666C225.1832916666667 259.8429166666666 324.6159583333333 160.6187916666666 442.8173750000001 84.6679166666667C488.0292083333334 56.1394166666667 548.79825 21.4380833333335 619.8275416666668 8.2165416666667C624.1652083333333 7.5492083333335 628.7531250000001 6.75675 632.9239583333334 6.2145416666668C681.1387916666666 0.2919583333335 723.7647083333335 12.4707916666667 759.7172916666667 43.0430000000001C759.9675416666668 43.3349583333335 760.4263333333333 43.5435000000001 760.6765833333334 44.0022916666668C773.147375 55.6389166666668 787.1613750000001 66.066 801.8427083333332 77.0352916666668C811.8944166666666 84.4593750000001 822.1546666666666 92.3422500000002 832.2897916666666 100.5587916666668C855.60475 119.5360833333334 869.5353333333334 143.0595833333334 872.7051666666667 168.6267916666669C875.875 194.4859583333336 867.8670000000001 220.5953750000002 849.3485000000001 243.9937500000002L748.8731250000001 372.5388333333335zM796.5874583333332 144.3525416666665C796.3789166666667 144.3525416666665 796.3789166666667 144.3108333333332 796.5874583333332 144.3525416666665C787.3699166666665 136.8033333333332 778.0689583333333 129.7129166666666 768.01725 122.1637083333333C752.8354166666666 110.9441666666667 737.4033333333333 99.0989999999998 722.5968750000001 85.5020833333332C698.7397083333334 65.5654999999998 672.5885833333333 58.1414166666666 640.014375 62.1037083333332C636.88625 62.5207916666666 633.5495833333333 62.8544583333332 630.4631666666667 63.3549583333332C568.9433750000001 75.0749999999998 514.3054583333334 106.1894166666666 473.6398333333333 132.0068749999999C362.5288333333334 203.3698333333332 268.7267916666667 297.0884583333332 195.1532916666667 409.9929166666666C134.509375 504.2120416666666 96.6799166666667 588.9216666666665 75.6172083333333 677.6352916666665C62.5625 731.8978333333332 60.435375 773.0222499999999 68.2765416666667 810.6848749999999A96.17941666666667 96.17941666666667 0 0 0 104.6879166666667 868.9514166666665L184.6010833333334 931.0551249999997C196.0291666666667 939.4384999999997 207.4989583333334 943.19225 218.1762916666667 942.1078333333332C231.3144166666667 940.3977916666666 240.99075 931.1385416666666 246.8299166666667 923.7561666666666A31.28125 31.28125 0 0 1 247.372125 922.922C258.6750833333334 909.6170416666666 269.269 895.8532916666666 280.3634166666667 881.1719583333332C286.0357500000001 873.7061666666666 291.8749166666667 866.2403749999999 297.7140833333334 858.5660416666666L347.7223750000001 794.9191249999999C367.1167500000001 770.1860833333333 364.6142500000001 749.7072916666666 339.7560833333334 730.47975C332.9576250000001 725.0993749999999 326.3677083333334 719.7607083333332 319.6109583333334 714.7139999999999C299.8829166666668 699.0733749999999 281.1141666666668 684.3920416666665 260.9690416666668 670.2946249999999C260.5102500000001 670.0860833333332 260.0514583333334 670.0026666666665 259.8012083333334 669.5855833333333C239.6143750000001 653.8615416666665 240.8239166666668 635.9686666666665 243.1178750000001 623.6229999999998L243.4932500000001 621.6627083333333C253.9203333333334 584.0417916666665 270.6453750000001 547.8806666666665 297.4221250000001 503.9617916666666L297.6306666666668 503.7532499999999C346.5128333333335 425.8003749999999 400.4417083333335 363.2378749999999 462.2534583333335 313.0210416666664C470.1363333333334 306.5145416666665 478.3945833333335 301.0090416666665 486.1940416666667 295.9206249999998C493.2844583333334 291.1658749999997 499.9160833333335 286.8282083333331 505.5050000000001 282.4488333333331C506.2974583333334 281.9066249999996 507.0482083333334 281.072458333333 507.8406666666667 280.6136666666664C514.514 276.1508749999997 520.9787916666667 273.7734999999997 527.8606666666667 272.814208333333C545.2113333333334 270.6036666666663 557.3901666666667 280.2799999999997 561.3524583333334 283.3664166666664L641.5158750000002 345.6786666666664C649.4821666666668 352.018333333333 661.8278333333335 358.9419166666663 674.9659583333336 357.4821249999997C687.8955416666668 355.897208333333 697.5301666666669 346.4711249999997 703.1607916666668 338.5882499999997L703.5361666666668 338.3379999999996L804.4286250000001 209.500958333333C823.2807916666669 185.6437916666663 820.6114583333335 163.7886249999997 796.5874583333335 144.3525416666663z" />
  </font>
</defs>
</svg>
