<svg 
 xmlns="http://www.w3.org/2000/svg"
 xmlns:xlink="http://www.w3.org/1999/xlink"
 width="49px" height="37px">
<path fill-rule="evenodd"  fill="rgb(155, 47, 31)"
 d="M47.818,9.668 L46.608,10.878 C46.279,11.217 45.738,11.217 45.399,10.878 L45.283,10.762 L44.431,11.614 C46.454,14.188 47.673,17.438 47.673,20.960 C47.673,29.301 40.880,36.094 32.539,36.094 C24.199,36.094 17.406,29.301 17.406,20.960 C17.406,17.438 18.616,14.188 20.648,11.614 L19.796,10.762 L19.680,10.878 C19.351,11.217 18.809,11.217 18.470,10.878 L17.261,9.668 C16.922,9.339 16.922,8.797 17.261,8.459 L19.999,5.720 C20.328,5.382 20.870,5.382 21.209,5.720 L22.418,6.930 C22.757,7.259 22.757,7.801 22.418,8.139 L22.302,8.256 L23.154,9.107 C25.292,7.414 27.905,6.282 30.759,5.943 L30.759,4.395 L29.820,4.395 C29.356,4.395 28.969,4.018 28.969,3.543 L28.969,1.028 C28.969,0.563 29.346,0.176 29.820,0.176 L35.258,0.176 C35.723,0.176 36.110,0.553 36.110,1.028 L36.110,3.543 C36.110,4.008 35.733,4.395 35.258,4.395 L34.320,4.395 L34.320,5.943 C37.174,6.273 39.777,7.404 41.925,9.107 L42.777,8.256 L42.660,8.139 C42.322,7.811 42.322,7.269 42.660,6.930 L43.870,5.720 C44.199,5.382 44.741,5.382 45.080,5.720 L47.818,8.459 C48.157,8.788 48.157,9.330 47.818,9.668 ZM32.539,9.349 C26.134,9.349 20.919,14.565 20.919,20.969 C20.919,27.376 26.134,32.590 32.539,32.590 C38.945,32.590 44.160,27.376 44.160,20.969 C44.160,14.565 38.945,9.349 32.539,9.349 ZM38.684,25.547 C38.539,25.470 38.413,25.344 38.335,25.208 C38.171,24.918 38.152,24.569 38.326,24.260 C38.577,23.806 39.158,23.651 39.613,23.902 C40.067,24.154 40.222,24.734 39.971,25.189 C39.719,25.644 39.138,25.809 38.684,25.547 ZM39.322,21.395 C39.235,21.251 39.187,21.096 39.187,20.922 C39.177,20.409 39.603,19.974 40.135,19.974 C40.658,19.974 41.083,20.390 41.083,20.912 C41.083,21.425 40.667,21.860 40.145,21.860 C39.796,21.860 39.487,21.677 39.322,21.395 ZM34.804,21.242 C34.726,21.928 34.339,22.576 33.691,22.964 C32.597,23.612 31.185,23.244 30.536,22.151 C29.888,21.058 30.256,19.645 31.349,18.997 C31.997,18.619 32.752,18.590 33.401,18.851 L38.635,16.287 C39.071,16.065 39.593,16.229 39.845,16.645 C40.096,17.071 39.980,17.603 39.574,17.884 L34.804,21.242 ZM32.781,19.993 C32.249,19.858 31.698,20.177 31.552,20.719 C31.417,21.251 31.736,21.802 32.278,21.947 C32.810,22.083 33.362,21.764 33.507,21.221 C33.643,20.689 33.323,20.129 32.781,19.993 ZM35.810,15.203 C35.665,15.117 35.549,14.990 35.462,14.865 C35.297,14.584 35.278,14.226 35.452,13.917 C35.713,13.462 36.284,13.297 36.739,13.558 C37.194,13.809 37.358,14.390 37.097,14.845 C36.845,15.300 36.265,15.464 35.810,15.203 ZM32.481,14.332 C32.133,14.342 31.823,14.149 31.659,13.868 C31.582,13.732 31.533,13.568 31.533,13.393 C31.533,12.871 31.949,12.445 32.472,12.445 C32.994,12.445 33.420,12.861 33.420,13.384 C33.420,13.906 33.004,14.332 32.481,14.332 ZM28.340,28.430 C28.195,28.343 28.069,28.218 27.992,28.082 C27.827,27.802 27.808,27.444 27.982,27.134 C28.234,26.679 28.814,26.515 29.269,26.776 C29.724,27.037 29.888,27.608 29.627,28.073 C29.375,28.517 28.795,28.682 28.340,28.430 ZM29.162,15.252 C29.162,15.261 29.162,15.261 29.153,15.261 C29.153,15.271 29.143,15.271 29.143,15.271 C28.698,15.532 28.117,15.387 27.846,14.932 C27.576,14.487 27.730,13.906 28.175,13.645 C28.185,13.645 28.185,13.635 28.195,13.635 C28.195,13.626 28.204,13.626 28.204,13.626 C28.659,13.365 29.240,13.510 29.501,13.965 C29.762,14.410 29.617,14.990 29.172,15.252 C29.162,15.252 29.162,15.252 29.162,15.252 ZM25.195,25.324 C24.924,24.880 25.079,24.299 25.524,24.037 C25.969,23.766 26.550,23.922 26.821,24.357 C27.082,24.811 26.937,25.392 26.492,25.653 C26.037,25.924 25.457,25.770 25.195,25.324 ZM25.457,18.087 C25.302,18.000 25.186,17.884 25.099,17.748 C24.934,17.458 24.924,17.099 25.089,16.799 C25.350,16.345 25.921,16.190 26.376,16.441 C26.840,16.703 26.995,17.274 26.743,17.729 C26.492,18.184 25.911,18.348 25.457,18.087 ZM25.882,21.058 C25.892,21.580 25.476,22.005 24.944,22.005 C24.595,22.016 24.286,21.821 24.121,21.541 C24.044,21.406 23.995,21.251 23.995,21.077 C23.995,20.554 24.412,20.129 24.934,20.119 C25.447,20.119 25.882,20.535 25.882,21.058 ZM32.607,27.628 C33.130,27.628 33.555,28.053 33.546,28.556 C33.555,29.079 33.139,29.505 32.617,29.514 C32.268,29.524 31.959,29.330 31.794,29.050 C31.717,28.914 31.669,28.760 31.669,28.585 C31.669,28.062 32.085,27.637 32.607,27.628 ZM37.213,27.037 C37.484,27.483 37.329,28.062 36.884,28.324 C36.429,28.595 35.849,28.449 35.587,27.995 C35.316,27.550 35.471,26.969 35.916,26.708 C36.362,26.447 36.942,26.592 37.213,27.037 ZM7.082,28.024 C6.259,28.024 5.582,27.357 5.582,26.524 C5.582,25.702 6.250,25.025 7.082,25.025 L7.082,25.015 L14.745,25.015 C14.968,26.030 15.287,27.008 15.674,27.947 C15.529,27.995 15.384,28.024 15.219,28.024 L7.082,28.024 ZM2.437,16.935 C1.615,16.935 0.937,16.268 0.937,15.435 C0.937,14.613 1.605,13.936 2.437,13.936 L15.219,13.936 C15.374,13.936 15.529,13.974 15.664,14.014 C15.268,14.962 14.958,15.948 14.736,16.935 L2.437,16.935 ZM4.527,19.480 L14.358,19.480 C14.319,19.974 14.290,20.467 14.290,20.969 C14.290,21.483 14.319,21.986 14.348,22.480 L4.527,22.480 C3.705,22.480 3.027,21.802 3.027,20.980 C3.027,20.157 3.695,19.480 4.527,19.480 Z"/>
</svg>