<?xml version="1.0" encoding="utf-8"?>
<!-- Generator: Adobe Illustrator 23.0.1, SVG Export Plug-In . SVG Version: 6.00 Build 0)  -->
<svg version="1.1" id="Слой_1" xmlns="http://www.w3.org/2000/svg" xmlns:xlink="http://www.w3.org/1999/xlink" x="0px" y="0px"
	 viewBox="0 0 62.1 116" style="enable-background:new 0 0 62.1 116;" xml:space="preserve">
<g>
	<path d="M55.1,1.2C55.9,0.4,56.9,0,58,0c1.1,0,2.1,0.4,2.9,1.2c1.6,1.6,1.6,4.2,0,5.8l-51,51l51,51c1.6,1.6,1.6,4.2,0,5.8
		c-1.6,1.6-4.2,1.6-5.8,0L1.2,60.9c-1.6-1.6-1.6-4.2,0-5.8L55.1,1.2z"/>
</g>
</svg>
