<svg 
 xmlns="http://www.w3.org/2000/svg"
 xmlns:xlink="http://www.w3.org/1999/xlink"
 width="38px" height="42px">
<path fill-rule="evenodd"  fill="rgb(155, 48, 32)"
 d="M26.926,12.585 C28.874,12.585 30.603,13.249 31.264,15.734 C31.928,18.221 36.808,36.490 37.108,37.513 C37.482,38.796 37.366,40.470 34.753,40.470 C34.436,40.470 33.655,40.470 32.573,40.470 L32.573,41.873 L4.841,41.873 L4.841,40.469 C3.918,40.469 3.265,40.469 2.978,40.469 C0.368,40.469 0.252,38.795 0.626,37.512 C0.926,36.489 5.806,18.220 6.469,15.734 C7.132,13.248 8.860,12.584 10.807,12.584 C11.445,12.584 13.810,12.584 16.683,12.584 L16.683,10.340 C4.057,9.683 1.416,0.433 1.416,0.433 L35.535,0.433 C35.535,0.433 32.386,9.190 20.578,10.289 L20.578,12.585 C23.665,12.585 26.255,12.585 26.926,12.585 ZM18.867,14.957 C12.476,14.957 7.296,20.135 7.296,26.528 C7.296,32.920 12.476,38.100 18.867,38.100 C25.261,38.100 30.441,32.920 30.441,26.528 C30.441,20.135 25.261,14.957 18.867,14.957 ZM26.432,22.927 C26.344,22.749 26.241,22.572 26.145,22.400 L27.659,21.571 L27.948,22.099 L26.432,22.927 ZM27.001,32.674 L25.515,31.615 C25.636,31.457 25.773,31.307 25.882,31.138 L27.353,32.183 L27.001,32.674 ZM23.077,19.293 L23.915,17.897 L24.434,18.208 L23.605,19.589 C23.436,19.477 23.250,19.396 23.077,19.293 ZM23.194,35.731 L22.401,34.128 C22.584,34.045 22.757,33.937 22.931,33.837 L23.738,35.463 L23.194,35.731 ZM19.055,27.876 C18.929,27.876 18.819,27.830 18.701,27.804 L15.789,32.674 L15.325,32.411 L17.918,27.451 C17.495,27.110 17.207,26.611 17.207,26.027 C17.207,25.005 18.036,24.177 19.055,24.177 C20.078,24.177 20.905,25.005 20.905,26.027 C20.905,27.047 20.078,27.876 19.055,27.876 ZM19.056,25.498 C18.764,25.498 18.529,25.737 18.529,26.027 C18.529,26.319 18.764,26.558 19.056,26.558 C19.351,26.558 19.588,26.319 19.588,26.027 C19.588,25.737 19.352,25.498 19.056,25.498 ZM18.716,18.140 L18.716,16.620 L19.319,16.620 L19.319,18.170 C19.166,18.162 19.023,18.125 18.866,18.125 C18.816,18.125 18.766,18.140 18.716,18.140 ZM14.300,17.802 L14.843,17.533 L15.490,18.842 C15.306,18.926 15.138,19.037 14.960,19.131 L14.300,17.802 ZM14.980,33.935 L14.121,35.360 L13.603,35.049 L14.447,33.645 C14.619,33.749 14.800,33.839 14.980,33.935 ZM10.686,21.081 L11.037,20.590 L12.224,21.435 C12.100,21.596 11.965,21.745 11.856,21.912 L10.686,21.081 ZM9.013,26.934 L9.013,26.330 L10.486,26.330 C10.483,26.398 10.464,26.459 10.464,26.528 C10.464,26.667 10.500,26.796 10.505,26.934 L9.013,26.934 ZM11.742,30.938 L10.376,31.683 L10.086,31.154 L11.457,30.408 C11.549,30.587 11.639,30.765 11.742,30.938 ZM19.319,34.884 L19.319,36.637 L18.716,36.637 L18.716,34.916 C18.766,34.916 18.816,34.930 18.866,34.930 C19.023,34.930 19.166,34.892 19.319,34.884 ZM27.272,26.528 C27.272,26.459 27.253,26.398 27.254,26.329 L29.028,26.329 L29.028,26.932 L27.232,26.932 C27.239,26.796 27.272,26.665 27.272,26.528 Z"/>
</svg>