<?xml version="1.0" encoding="utf-8"?>
<!-- Generator: Adobe Illustrator 21.0.1, SVG Export Plug-In . SVG Version: 6.00 Build 0)  -->
<svg version="1.1" id="Слой_1" xmlns="http://www.w3.org/2000/svg" xmlns:xlink="http://www.w3.org/1999/xlink" x="0px" y="0px"
	 width="54.2px" height="54.4px" viewBox="0 0 54.2 54.4" enable-background="new 0 0 54.2 54.4" xml:space="preserve">
<path fill="#C9AE8A" d="M53.7,18.5c-0.9,0.3-1.8,0.6-2.7,0.9c-0.6,0.2-0.7,0.5-0.5,0.9c0.8,2.6,1.1,5.3,1,8c-0.2,5-1.8,9.4-4.7,13.4
	c-1.5,2.2-3.4,4-5.6,5.5c-1.4,1-3.1,1.7-4.7,2.6l1.4,3.9l-1.6,0.6c-0.4-1.1-0.8-2.2-1.2-3.3c-0.2-0.6-0.4-0.7-1-0.5
	c-6.8,2.1-13.3,1.2-19.4-2.3c-3.3-1.9-6-4.6-8.1-7.7c-0.7-1-1.2-2-1.6-3.1c-0.3-0.8-0.8-0.9-1.5-0.5c-0.9,0.4-1.8,0.8-2.8,1.3
	c-0.2-0.4-0.3-0.7-0.5-1.1c-0.3-0.5-0.1-0.8,0.4-0.9c1.1-0.4,2.2-0.8,3.3-1.2c-0.2-1.2-0.5-2.4-0.7-3.5c-0.7-3.6-0.5-7.2,0.5-10.8
	c1-3.5,2.7-6.7,5.1-9.4c1.8-2.1,4-3.9,6.4-5.2c0.7-0.4,1.4-0.8,2.1-1.1c0.6-0.2,0.6-0.5,0.4-1.1c-0.5-1.1-0.9-2.2-1.3-3.3L18,0
	c0.5,1.3,0.9,2.5,1.4,3.8c0,0.1,0.1,0.2,0.1,0.1c2.2-0.3,4.3-0.7,6.4-0.9c3.3-0.3,6.5,0.3,9.7,1.4c4,1.4,7.4,3.8,10.1,7
	c1.5,1.7,2.8,3.7,3.6,5.8c0.3,0.7,0.6,0.9,1.3,0.5c0.8-0.4,1.7-0.7,2.5-1c0.8-0.3,0.9,0.2,1.1,0.7C54.3,17.9,54.4,18.3,53.7,18.5
	L53.7,18.5z M6.5,36.6c1.4,2.9,3.2,5.5,5.6,7.6c5.7,4.8,12.2,6.6,19.5,5.3c0.9-0.2,1.7-0.4,2.6-0.6l-1.2-3.1l-1-0.3l0.5-0.8l0.2,0
	c-0.3-0.8-0.5-1.7-0.8-2.5c-0.6-1.7-1.2-3.4-1.7-5.1c-0.2-0.7-0.4-0.8-1.1-0.7c-3.2,0.7-6.1,0-8.4-2.3c-0.8-0.8-1.4-1.8-2.2-2.9
	c-3.8,1.5-7.7,3.1-11.6,4.7C6.4,35.8,6.3,36.1,6.5,36.6z M34.6,24.2c-1.4-3.9-6.5-6-9.9-4.5l1.5,4.9l-0.3,0.1
	c-0.5-1.4-1-2.8-1.6-4.2c-0.2-0.5-0.5-0.7-1-0.4c-0.6,0.4-1.3,0.8-1.8,1.3c-2.1,2.1-3,4.5-2.5,7.5c0.2,0.9,0.4,1,1.2,0.7
	c1.3-0.5,2.7-0.9,4-1.3l0.1,0.2l-4.9,2.1c0.5,0.8,0.9,1.5,1.4,2c1.8,2.1,4.1,3,6.9,2.8c1.9-0.1,2-0.2,1.3-2
	c-0.4-1.1-0.8-2.2-1.2-3.3l0.3-0.1l2.1,4.7c4.2-1.8,5.8-6.6,4.4-10l-4.8,1.8l-0.1-0.3C29.8,26.2,34.6,24.2,34.6,24.2z M19,7.3
	c-0.2-0.8-0.7-0.8-1.2-0.5c-1.3,0.8-2.6,1.5-3.8,2.3c-4,2.8-6.7,6.6-8.2,11.2C4.3,24.5,4.2,28.7,5.3,33c0.4,1.5,0.4,1.6,1.9,1
	c2.3-0.8,4.7-1.6,7-2.4c1.4-0.5,2.8-1,4.2-1.5c-1.2-5,0.6-8.7,5.2-11.2l-3.3-7.9L19,10.5l0.7-1.1C19.5,8.8,19.2,8,19,7.3z
	 M47.7,18.1c-1.2-2.8-2.9-5.3-5.2-7.3C36.6,5.6,29.7,3.7,22,5.3c-2.1,0.4-2.1,0.5-1.4,2.5c0.1,0.1,0.1,0.3,0.2,0.4
	c0.1,0.7,0.5,1,1.5,0.7c-0.2,0.5-0.3,0.8-0.4,1.1c-0.1,0.2-0.3,0.5-0.2,0.7c0.8,2.6,1.7,5.3,2.6,8c0.8-0.2,1.4-0.4,2.1-0.4
	c3.9-0.1,6.9,1.4,8.8,4.9c0.3,0.6,0.6,0.7,1.2,0.4c2.6-1.1,5.2-2.1,7.7-3.1c1.3-0.5,2.6-1,3.9-1.4C47.8,18.5,47.8,18.3,47.7,18.1z
	 M48.4,20c-2.2,0.8-4.2,1.6-6.3,2.3c-1.8,0.7-3.6,1.3-5.5,1.9c-0.7,0.2-0.9,0.4-0.7,1.2c0.6,2.8,0.1,5.5-1.8,7.6
	c-0.9,1.1-2.2,1.9-3.4,3l3.3,8.1c0.6-0.1,1.2-0.5,1.2,0.5c-0.8,0.2-0.8,0.7-0.5,1.4c0.4,0.7,0.7,1.4,1,2.3c6.5-3,10.8-7.7,12.9-14.3
	C50.1,29.3,50.1,24.7,48.4,20z M44.7,22.5l0.8-0.3l0.7,3.3l-1-0.1C45.2,25.5,44.7,22.5,44.7,22.5z M43.2,37.5
	c-0.3,0.7-0.7,0.6-1.1,0l1.5-2.6c0.8,0.1,0.9,0.4,0.5,1C43.8,36.5,43.5,37,43.2,37.5z M45.6,28.7c0.1,0.2,0.4,0.4,0.4,0.6
	c-0.1,0.9-0.2,1.8-0.4,2.8l-0.9-0.3c0.2-0.9,0.3-1.8,0.5-2.6C45.2,29,45.5,28.9,45.6,28.7z M38.1,41.7c0.5-0.3,1-0.7,1.3-1.1
	c0.5-0.6,0.8-0.5,1.3,0.2l-2.5,2.1C37.7,42.4,37.6,42.1,38.1,41.7z M43.2,18.8c-0.4-0.6-0.8-1.1-1.1-1.7c-0.1-0.2,0.1-0.5,0.1-0.8
	c0.2,0.1,0.6,0,0.7,0.2c0.5,0.8,0.9,1.6,1.4,2.5l-0.8,0.4C43.4,19.2,43.3,19,43.2,18.8z M39.5,14.1c-0.7-0.5-1.4-1.1-2.1-1.7
	c0.2-0.7,0.6-0.8,1.2-0.3c0.5,0.5,1,0.8,1.5,1.3c0.1,0.1,0.1,0.4,0.1,0.7C40,14.1,39.7,14.2,39.5,14.1z M31.7,9.7
	c0.1-0.6,0.3-1,1-0.7c0.5,0.3,1.1,0.4,1.7,0.6c0.8,0.2,0.6,0.6,0.3,1.1C34.6,10.8,31.7,9.7,31.7,9.7z M25.4,9.2
	c-0.2-0.6-0.1-0.9,0.5-0.9c0.7,0,1.4-0.1,2.1,0c0.2,0,0.4,0.3,0.6,0.5c-0.2,0.1-0.4,0.4-0.6,0.4C27.2,9.2,26.3,9.2,25.4,9.2z
	 M14.2,14.5c-0.6-0.4-0.6-0.8-0.1-1.1c0.5-0.4,1-0.9,1.5-1.3c0.2-0.1,0.5,0,0.8,0c0,0.2,0,0.6-0.1,0.7C15.6,13.4,14.9,14,14.2,14.5z
	 M10.6,19.7c-0.7-0.2-1-0.5-0.4-1.1c0.4-0.5,0.6-1.2,1-1.7c0.1-0.1,0.4-0.1,0.6-0.2c0.1,0.3,0.2,0.6,0.2,0.8
	C11.5,18.2,11.1,19,10.6,19.7z M8.5,31.9c-0.1-0.9-0.3-1.6-0.3-2.3c0-0.2,0.3-0.4,0.4-0.5c0.2,0.1,0.4,0.2,0.5,0.4
	c0.2,0.6,0.3,1.3,0.4,2c0,0.3-0.2,0.5-0.3,0.8C9.2,32.3,8.5,31.9,8.5,31.9z M9.1,25.3c-0.1,0.2-0.4,0.4-0.6,0.6
	c-0.1-0.2-0.3-0.5-0.3-0.7c0.1-0.9,0.3-1.8,0.4-2.6c0.8,0,1,0.3,0.8,0.9C9.3,24.1,9.3,24.7,9.1,25.3z M27.7,28.8
	c-0.8,0.3-1.8-0.2-2.1-1c-0.3-0.7,0.2-1.8,0.9-2.1c0.8-0.3,1.7,0.2,2,1C28.8,27.6,28.5,28.5,27.7,28.8z M11,35.6
	c0.4,0.7,0.8,1.3,1.1,2c0.1,0.1,0,0.5-0.1,0.5c-0.2,0-0.6,0.1-0.7-0.1c-0.5-0.8-1-1.6-1.5-2.4C10.4,35.1,10.7,35,11,35.6z
	 M16.5,42.1c0.2,0.2,0,0.6,0,0.9l-0.3,0.1L13.7,41l0.6-0.7C15.1,40.8,15.8,41.4,16.5,42.1z M22.5,44.9c0.1,0.8-0.1,1-0.8,0.7
	c-0.6-0.2-1.2-0.5-1.8-0.6c-0.8-0.2-0.7-0.6-0.2-1.1L22.5,44.9z M26.1,45.4c0.9,0,1.9,0,2.8,0.1c0.1,0.5,0.1,0.9-0.6,0.9
	c-0.7,0-1.5,0.1-2.2,0c-0.2,0-0.4-0.4-0.5-0.6C25.8,45.6,25.9,45.4,26.1,45.4z"/>
</svg>
